src/dsa_bilineal_seq/simulation/modelsim/msim_transcript
# Reading C:/intelFPGA_lite/18.1/modelsim_ase/tcl/vsim/pref.tcl
# do top_dsa_seq_run_msim_rtl_verilog.do
# if {[file exists rtl_work]} {
# 	vdel -lib rtl_work -all
# }
# vlib rtl_work
# vmap work rtl_work
# Model Technology ModelSim - Intel FPGA Edition vmap 10.5b Lib Mapping Utility 2016.10 Oct  5 2016
# vmap work rtl_work 
# Copying C:/intelFPGA_lite/18.1/modelsim_ase/win32aloem/../modelsim.ini to modelsim.ini
# Modifying modelsim.ini
# 
# vlog -sv -work work +incdir+C:/Users/danbg/src/proyecto_2_arqui_II/src/dsa_bilineal_seq {C:/Users/danbg/src/proyecto_2_arqui_II/src/dsa_bilineal_seq/bilinear_simd4.sv}
# Model Technology ModelSim - Intel FPGA Edition vlog 10.5b Compiler 2016.10 Oct  5 2016
# Start time: 01:19:16 on Nov 26,2025
# vlog -reportprogress 300 -sv -work work "+incdir+C:/Users/danbg/src/proyecto_2_arqui_II/src/dsa_bilineal_seq" C:/Users/danbg/src/proyecto_2_arqui_II/src/dsa_bilineal_seq/bilinear_simd4.sv 
# -- Compiling module bilinear_simd4
# 
# Top level modules:
# 	bilinear_simd4
# End time: 01:19:16 on Nov 26,2025, Elapsed time: 0:00:00
# Errors: 0, Warnings: 0
# vlog -sv -work work +incdir+C:/Users/danbg/src/proyecto_2_arqui_II/src/dsa_bilineal_seq {C:/Users/danbg/src/proyecto_2_arqui_II/src/dsa_bilineal_seq/onchip_mem_dp.sv}
# Model Technology ModelSim - Intel FPGA Edition vlog 10.5b Compiler 2016.10 Oct  5 2016
# Start time: 01:19:16 on Nov 26,2025
# vlog -reportprogress 300 -sv -work work "+incdir+C:/Users/danbg/src/proyecto_2_arqui_II/src/dsa_bilineal_seq" C:/Users/danbg/src/proyecto_2_arqui_II/src/dsa_bilineal_seq/onchip_mem_dp.sv 
# -- Compiling module onchip_mem_dp
# 
# Top level modules:
# 	onchip_mem_dp
# End time: 01:19:16 on Nov 26,2025, Elapsed time: 0:00:00
# Errors: 0, Warnings: 0
# vlog -sv -work work +incdir+C:/Users/danbg/src/proyecto_2_arqui_II/src/dsa_bilineal_seq {C:/Users/danbg/src/proyecto_2_arqui_II/src/dsa_bilineal_seq/bilinear_seq.sv}
# Model Technology ModelSim - Intel FPGA Edition vlog 10.5b Compiler 2016.10 Oct  5 2016
# Start time: 01:19:16 on Nov 26,2025
# vlog -reportprogress 300 -sv -work work "+incdir+C:/Users/danbg/src/proyecto_2_arqui_II/src/dsa_bilineal_seq" C:/Users/danbg/src/proyecto_2_arqui_II/src/dsa_bilineal_seq/bilinear_seq.sv 
# -- Compiling module bilinear_seq
# 
# Top level modules:
# 	bilinear_seq
# End time: 01:19:17 on Nov 26,2025, Elapsed time: 0:00:01
# Errors: 0, Warnings: 0
# vlog -sv -work work +incdir+C:/Users/danbg/src/proyecto_2_arqui_II/src/dsa_bilineal_seq {C:/Users/danbg/src/proyecto_2_arqui_II/src/dsa_bilineal_seq/top_dsa_seq.sv}
# Model Technology ModelSim - Intel FPGA Edition vlog 10.5b Compiler 2016.10 Oct  5 2016
# Start time: 01:19:17 on Nov 26,2025
# vlog -reportprogress 300 -sv -work work "+incdir+C:/Users/danbg/src/proyecto_2_arqui_II/src/dsa_bilineal_seq" C:/Users/danbg/src/proyecto_2_arqui_II/src/dsa_bilineal_seq/top_dsa_seq.sv 
# -- Compiling module top_dsa_seq
# 
# Top level modules:
# 	top_dsa_seq
# End time: 01:19:17 on Nov 26,2025, Elapsed time: 0:00:00
# Errors: 0, Warnings: 0
# 
# vlog -sv -work work +incdir+C:/Users/danbg/src/proyecto_2_arqui_II/src/dsa_bilineal_seq {C:/Users/danbg/src/proyecto_2_arqui_II/src/dsa_bilineal_seq/tb_bilinear_seq.sv}
# Model Technology ModelSim - Intel FPGA Edition vlog 10.5b Compiler 2016.10 Oct  5 2016
# Start time: 01:19:17 on Nov 26,2025
# vlog -reportprogress 300 -sv -work work "+incdir+C:/Users/danbg/src/proyecto_2_arqui_II/src/dsa_bilineal_seq" C:/Users/danbg/src/proyecto_2_arqui_II/src/dsa_bilineal_seq/tb_bilinear_seq.sv 
# -- Compiling module tb_bilinear_seq
# 
# Top level modules:
# 	tb_bilinear_seq
# End time: 01:19:17 on Nov 26,2025, Elapsed time: 0:00:00
# Errors: 0, Warnings: 0
# 
# vsim -t 1ps -L altera_ver -L lpm_ver -L sgate_ver -L altera_mf_ver -L altera_lnsim_ver -L cyclonev_ver -L cyclonev_hssi_ver -L cyclonev_pcie_hip_ver -L rtl_work -L work -voptargs="+acc"  tb_bilinear_seq
# vsim -t 1ps -L altera_ver -L lpm_ver -L sgate_ver -L altera_mf_ver -L altera_lnsim_ver -L cyclonev_ver -L cyclonev_hssi_ver -L cyclonev_pcie_hip_ver -L rtl_work -L work -voptargs=""+acc"" tb_bilinear_seq 
# Start time: 01:19:17 on Nov 26,2025
# Loading sv_std.std
# Loading work.tb_bilinear_seq
# Loading work.top_dsa_seq
# Loading work.onchip_mem_dp
# Loading work.bilinear_seq
# Loading work.bilinear_simd4
# 
# add wave *
# view structure
# .main_pane.structure.interior.cs.body.struct
# view signals
# .main_pane.objects.interior.cs.body.tree
# run -all
# [onchip_mem_dp] INIT_EN=1, pero MEM_INIT_FILE no está definido. Inicializando a 0x00.
# [onchip_mem_dp] INIT_EN=1, pero MEM_INIT_FILE no está definido. Inicializando a 0x00.
# [onchip_mem_dp] INIT_EN=1, pero MEM_INIT_FILE no está definido. Inicializando a 0x00.
# [onchip_mem_dp] INIT_EN=1, pero MEM_INIT_FILE no está definido. Inicializando a 0x00.
# [onchip_mem_dp] INIT_EN=1, pero MEM_INIT_FILE no está definido. Inicializando a 0x00.
# [onchip_mem_dp] INIT_EN=0, inicializando memoria a 0x00.
# [TB] Forzando in_w_cfg=16, in_h_cfg=16, scale_q88_cfg=205 (Q8.8)
# [TB] Cargando imagen de entrada desde 'C:/Users/danbg/src/proyecto_2_arqui_II/src/dsa_bilineal_seq/img_16x16.hex' en mem_in...
# [TB] mem_in[0] = 0xdc
# [TB] mem_in[1] = 0xdc
# [TB] mem_in[2] = 0xdc
# [TB] mem_in[3] = 0xdc
# [TB] mem_in[4] = 0xdc
# [TB] mem_in[5] = 0xdc
# [TB] mem_in[6] = 0xdc
# [TB] mem_in[7] = 0xdc
# [TB] mem_in[8] = 0xdc
# [TB] mem_in[9] = 0xdc
# [TB] mem_in[10] = 0xdc
# [TB] mem_in[11] = 0xdc
# [TB] mem_in[12] = 0xdc
# [TB] mem_in[13] = 0xdc
# [TB] mem_in[14] = 0xdc
# [TB] mem_in[15] = 0xdc
# 
# [TB][ANTES_SEQ] Dump inicial de bancos de entrada (primeros 16 elementos):
# [TB][ANTES_SEQ] mem_in [0]  = 0xdc
# [TB][ANTES_SEQ] mem_in [1]  = 0xdc
# [TB][ANTES_SEQ] mem_in [2]  = 0xdc
# [TB][ANTES_SEQ] mem_in [3]  = 0xdc
# [TB][ANTES_SEQ] mem_in [4]  = 0xdc
# [TB][ANTES_SEQ] mem_in [5]  = 0xdc
# [TB][ANTES_SEQ] mem_in [6]  = 0xdc
# [TB][ANTES_SEQ] mem_in [7]  = 0xdc
# [TB][ANTES_SEQ] mem_in [8]  = 0xdc
# [TB][ANTES_SEQ] mem_in [9]  = 0xdc
# [TB][ANTES_SEQ] mem_in [10]  = 0xdc
# [TB][ANTES_SEQ] mem_in [11]  = 0xdc
# [TB][ANTES_SEQ] mem_in [12]  = 0xdc
# [TB][ANTES_SEQ] mem_in [13]  = 0xdc
# [TB][ANTES_SEQ] mem_in [14]  = 0xdc
# [TB][ANTES_SEQ] mem_in [15]  = 0xdc
# [TB][ANTES_SEQ] mem_in1[0] = 0xdc
# [TB][ANTES_SEQ] mem_in1[1] = 0xdc
# [TB][ANTES_SEQ] mem_in1[2] = 0xdc
# [TB][ANTES_SEQ] mem_in1[3] = 0xdc
# [TB][ANTES_SEQ] mem_in1[4] = 0xdc
# [TB][ANTES_SEQ] mem_in1[5] = 0xdc
# [TB][ANTES_SEQ] mem_in1[6] = 0xdc
# [TB][ANTES_SEQ] mem_in1[7] = 0xdc
# [TB][ANTES_SEQ] mem_in1[8] = 0xdc
# [TB][ANTES_SEQ] mem_in1[9] = 0xdc
# [TB][ANTES_SEQ] mem_in1[10] = 0xdc
# [TB][ANTES_SEQ] mem_in1[11] = 0xdc
# [TB][ANTES_SEQ] mem_in1[12] = 0xdc
# [TB][ANTES_SEQ] mem_in1[13] = 0xdc
# [TB][ANTES_SEQ] mem_in1[14] = 0xdc
# [TB][ANTES_SEQ] mem_in1[15] = 0xdc
# [TB][ANTES_SEQ] mem_in2[0] = 0xdc
# [TB][ANTES_SEQ] mem_in2[1] = 0xdc
# [TB][ANTES_SEQ] mem_in2[2] = 0xdc
# [TB][ANTES_SEQ] mem_in2[3] = 0xdc
# [TB][ANTES_SEQ] mem_in2[4] = 0xdc
# [TB][ANTES_SEQ] mem_in2[5] = 0xdc
# [TB][ANTES_SEQ] mem_in2[6] = 0xdc
# [TB][ANTES_SEQ] mem_in2[7] = 0xdc
# [TB][ANTES_SEQ] mem_in2[8] = 0xdc
# [TB][ANTES_SEQ] mem_in2[9] = 0xdc
# [TB][ANTES_SEQ] mem_in2[10] = 0xdc
# [TB][ANTES_SEQ] mem_in2[11] = 0xdc
# [TB][ANTES_SEQ] mem_in2[12] = 0xdc
# [TB][ANTES_SEQ] mem_in2[13] = 0xdc
# [TB][ANTES_SEQ] mem_in2[14] = 0xdc
# [TB][ANTES_SEQ] mem_in2[15] = 0xdc
# [TB][ANTES_SEQ] mem_in3[0] = 0xdc
# [TB][ANTES_SEQ] mem_in3[1] = 0xdc
# [TB][ANTES_SEQ] mem_in3[2] = 0xdc
# [TB][ANTES_SEQ] mem_in3[3] = 0xdc
# [TB][ANTES_SEQ] mem_in3[4] = 0xdc
# [TB][ANTES_SEQ] mem_in3[5] = 0xdc
# [TB][ANTES_SEQ] mem_in3[6] = 0xdc
# [TB][ANTES_SEQ] mem_in3[7] = 0xdc
# [TB][ANTES_SEQ] mem_in3[8] = 0xdc
# [TB][ANTES_SEQ] mem_in3[9] = 0xdc
# [TB][ANTES_SEQ] mem_in3[10] = 0xdc
# [TB][ANTES_SEQ] mem_in3[11] = 0xdc
# [TB][ANTES_SEQ] mem_in3[12] = 0xdc
# [TB][ANTES_SEQ] mem_in3[13] = 0xdc
# [TB][ANTES_SEQ] mem_in3[14] = 0xdc
# [TB][ANTES_SEQ] mem_in3[15] = 0xdc
# 
# [TB] ===== INICIO CORRIDA 1: SECUENCIAL (16x16) ===== t=82110000
# 
# [TB][SEQ] Forzando start_pulse_sw en t=82110000
# [SEQ][RUN=1][t=82330000] WRITE ox=0 oy=0 addr=0 pix=0xdc | sx_fix=0.0 sy_fix=0.0 | xi=0 yi=0 fx_q=0 fy_q=0 | addr00=0 addr10=1 addr01=16 addr11=17 | I00=220 I10=220 I01=220 I11=220
# [SEQ][ADDRCHK] t=82330000 ox=0 oy=0 out_w=12 | exp_addr=0 out_waddr=0
# [SEQ][MEMCHK]  t=82330000 addr00=0 I00=220 mem_in=220 | addr10=1 I10=220 mem_in=220 | addr01=16 I01=220 mem_in=220 | addr11=17 I11=220 mem_in=220
# [SEQ][RUN=1][t=82490000] WRITE ox=1 oy=0 addr=1 pix=0xdc | sx_fix=1.63 sy_fix=0.0 | xi=1 yi=0 fx_q=63 fy_q=0 | addr00=1 addr10=2 addr01=17 addr11=18 | I00=220 I10=220 I01=220 I11=220
# [SEQ][ADDRCHK] t=82490000 ox=1 oy=0 out_w=12 | exp_addr=1 out_waddr=1
# [SEQ][MEMCHK]  t=82490000 addr00=1 I00=220 mem_in=220 | addr10=2 I10=220 mem_in=220 | addr01=17 I01=220 mem_in=220 | addr11=18 I11=220 mem_in=25
# [SEQ][RUN=1][t=82650000] WRITE ox=2 oy=0 addr=2 pix=0x79 | sx_fix=2.126 sy_fix=0.0 | xi=2 yi=0 fx_q=126 fy_q=0 | addr00=2 addr10=3 addr01=18 addr11=19 | I00=25 I10=220 I01=220 I11=25
# [SEQ][ADDRCHK] t=82650000 ox=2 oy=0 out_w=12 | exp_addr=2 out_waddr=2
# [SEQ][MEMCHK]  t=82650000 addr00=2 I00=25 mem_in=220 | addr10=3 I10=220 mem_in=220 | addr01=18 I01=220 mem_in=25 | addr11=19 I11=25 mem_in=34
# [SEQ][RUN=1][t=82810000] WRITE ox=3 oy=0 addr=3 pix=0xab | sx_fix=3.189 sy_fix=0.0 | xi=3 yi=0 fx_q=189 fy_q=0 | addr00=3 addr10=4 addr01=19 addr11=20 | I00=34 I10=220 I01=220 I11=34
# [SEQ][ADDRCHK] t=82810000 ox=3 oy=0 out_w=12 | exp_addr=3 out_waddr=3
# [SEQ][MEMCHK]  t=82810000 addr00=3 I00=34 mem_in=220 | addr10=4 I10=220 mem_in=220 | addr01=19 I01=220 mem_in=34 | addr11=20 I11=34 mem_in=42
# [SEQ][RUN=1][t=82970000] WRITE ox=4 oy=0 addr=4 pix=0xd9 | sx_fix=4.252 sy_fix=0.0 | xi=4 yi=0 fx_q=252 fy_q=0 | addr00=4 addr10=5 addr01=20 addr11=21 | I00=42 I10=220 I01=220 I11=42
# [SEQ][ADDRCHK] t=82970000 ox=4 oy=0 out_w=12 | exp_addr=4 out_waddr=4
# [SEQ][MEMCHK]  t=82970000 addr00=4 I00=42 mem_in=220 | addr10=5 I10=220 mem_in=220 | addr01=20 I01=220 mem_in=42 | addr11=21 I11=42 mem_in=51
# [SEQ][RUN=1][t=83130000] WRITE ox=5 oy=0 addr=5 pix=0x5a | sx_fix=6.59 sy_fix=0.0 | xi=6 yi=0 fx_q=59 fy_q=0 | addr00=6 addr10=7 addr01=22 addr11=23 | I00=51 I10=220 I01=220 I11=59
# [SEQ][ADDRCHK] t=83130000 ox=5 oy=0 out_w=12 | exp_addr=5 out_waddr=5
# [SEQ][MEMCHK]  t=83130000 addr00=6 I00=51 mem_in=220 | addr10=7 I10=220 mem_in=220 | addr01=22 I01=220 mem_in=59 | addr11=23 I11=59 mem_in=68
# [SEQ][RUN=1][t=83290000] WRITE ox=6 oy=0 addr=6 pix=0x8c | sx_fix=7.122 sy_fix=0.0 | xi=7 yi=0 fx_q=122 fy_q=0 | addr00=7 addr10=8 addr01=23 addr11=24 | I00=68 I10=220 I01=220 I11=68
# [SEQ][ADDRCHK] t=83290000 ox=6 oy=0 out_w=12 | exp_addr=6 out_waddr=6
# [SEQ][MEMCHK]  t=83290000 addr00=7 I00=68 mem_in=220 | addr10=8 I10=220 mem_in=220 | addr01=23 I01=220 mem_in=68 | addr11=24 I11=68 mem_in=76
# [SEQ][RUN=1][t=83450000] WRITE ox=7 oy=0 addr=7 pix=0xb4 | sx_fix=8.185 sy_fix=0.0 | xi=8 yi=0 fx_q=185 fy_q=0 | addr00=8 addr10=9 addr01=24 addr11=25 | I00=76 I10=220 I01=220 I11=76
# [SEQ][ADDRCHK] t=83450000 ox=7 oy=0 out_w=12 | exp_addr=7 out_waddr=7
# [SEQ][MEMCHK]  t=83450000 addr00=8 I00=76 mem_in=220 | addr10=9 I10=220 mem_in=220 | addr01=24 I01=220 mem_in=76 | addr11=25 I11=76 mem_in=85
# [SEQ][RUN=1][t=83610000] WRITE ox=8 oy=0 addr=8 pix=0xd8 | sx_fix=9.248 sy_fix=0.0 | xi=9 yi=0 fx_q=248 fy_q=0 | addr00=9 addr10=10 addr01=25 addr11=26 | I00=85 I10=220 I01=220 I11=85
# [SEQ][ADDRCHK] t=83610000 ox=8 oy=0 out_w=12 | exp_addr=8 out_waddr=8
# [SEQ][MEMCHK]  t=83610000 addr00=9 I00=85 mem_in=220 | addr10=10 I10=220 mem_in=220 | addr01=25 I01=220 mem_in=85 | addr11=26 I11=85 mem_in=93
# [SEQ][RUN=1][t=83770000] WRITE ox=9 oy=0 addr=9 pix=0x78 | sx_fix=11.55 sy_fix=0.0 | xi=11 yi=0 fx_q=55 fy_q=0 | addr00=11 addr10=12 addr01=27 addr11=28 | I00=93 I10=220 I01=220 I11=102
# [SEQ][ADDRCHK] t=83770000 ox=9 oy=0 out_w=12 | exp_addr=9 out_waddr=9
# [SEQ][MEMCHK]  t=83770000 addr00=11 I00=93 mem_in=220 | addr10=12 I10=220 mem_in=220 | addr01=27 I01=220 mem_in=102 | addr11=28 I11=102 mem_in=110
# [SEQ][RUN=1][t=83930000] WRITE ox=10 oy=0 addr=10 pix=0xa1 | sx_fix=12.118 sy_fix=0.0 | xi=12 yi=0 fx_q=118 fy_q=0 | addr00=12 addr10=13 addr01=28 addr11=29 | I00=110 I10=220 I01=220 I11=110
# [SEQ][ADDRCHK] t=83930000 ox=10 oy=0 out_w=12 | exp_addr=10 out_waddr=10
# [SEQ][MEMCHK]  t=83930000 addr00=12 I00=110 mem_in=220 | addr10=13 I10=220 mem_in=220 | addr01=28 I01=220 mem_in=110 | addr11=29 I11=110 mem_in=119
# [SEQ][RUN=1][t=84090000] WRITE ox=11 oy=0 addr=11 pix=0xbe | sx_fix=13.181 sy_fix=0.0 | xi=13 yi=0 fx_q=181 fy_q=0 | addr00=13 addr10=14 addr01=29 addr11=30 | I00=119 I10=220 I01=220 I11=119
# [SEQ][ADDRCHK] t=84090000 ox=11 oy=0 out_w=12 | exp_addr=11 out_waddr=11
# [SEQ][MEMCHK]  t=84090000 addr00=13 I00=119 mem_in=220 | addr10=14 I10=220 mem_in=220 | addr01=29 I01=220 mem_in=119 | addr11=30 I11=119 mem_in=220
# [SEQ][RUN=1][t=84270000] WRITE ox=0 oy=1 addr=12 pix=0xdc | sx_fix=0.0 sy_fix=1.63 | xi=0 yi=1 fx_q=0 fy_q=63 | addr00=16 addr10=17 addr01=32 addr11=33 | I00=220 I10=220 I01=220 I11=220
# [SEQ][ADDRCHK] t=84270000 ox=0 oy=1 out_w=12 | exp_addr=12 out_waddr=12
# [SEQ][MEMCHK]  t=84270000 addr00=16 I00=220 mem_in=220 | addr10=17 I10=220 mem_in=220 | addr01=32 I01=220 mem_in=220 | addr11=33 I11=220 mem_in=25
# [SEQ][RUN=1][t=84430000] WRITE ox=1 oy=1 addr=13 pix=0x3d | sx_fix=1.63 sy_fix=1.63 | xi=1 yi=1 fx_q=63 fy_q=63 | addr00=17 addr10=18 addr01=33 addr11=34 | I00=25 I10=220 I01=25 I11=25
# [SEQ][ADDRCHK] t=84430000 ox=1 oy=1 out_w=12 | exp_addr=13 out_waddr=13
# [SEQ][MEMCHK]  t=84430000 addr00=17 I00=25 mem_in=220 | addr10=18 I10=220 mem_in=25 | addr01=33 I01=25 mem_in=25 | addr11=34 I11=25 mem_in=220
# [SEQ][RUN=1][t=84590000] WRITE ox=2 oy=1 addr=14 pix=0x7c | sx_fix=2.126 sy_fix=1.63 | xi=2 yi=1 fx_q=126 fy_q=63 | addr00=18 addr10=19 addr01=34 addr11=35 | I00=220 I10=25 I01=34 I11=220
# [SEQ][ADDRCHK] t=84590000 ox=2 oy=1 out_w=12 | exp_addr=14 out_waddr=14
# [SEQ][MEMCHK]  t=84590000 addr00=18 I00=220 mem_in=25 | addr10=19 I10=25 mem_in=34 | addr01=34 I01=34 mem_in=220 | addr11=35 I11=220 mem_in=42
# [SEQ][RUN=1][t=84750000] WRITE ox=3 oy=1 addr=15 pix=0x26 | sx_fix=3.189 sy_fix=1.63 | xi=3 yi=1 fx_q=189 fy_q=63 | addr00=19 addr10=20 addr01=35 addr11=36 | I00=42 I10=34 I01=42 I11=42
# [SEQ][ADDRCHK] t=84750000 ox=3 oy=1 out_w=12 | exp_addr=15 out_waddr=15
# [SEQ][MEMCHK]  t=84750000 addr00=19 I00=42 mem_in=34 | addr10=20 I10=34 mem_in=42 | addr01=35 I01=42 mem_in=42 | addr11=36 I11=42 mem_in=51
# [TB][SEQ] DONE detectado en t=105430000
# [TB][SEQ] mode_simd_eff = 0 (0=SEQ,1=SIMD4)
# [TB][SEQ] out_w = 12, out_h = 12
# [TB][SEQ] perf: flops=1584 mem_rd=576 mem_wr=144
# [TB] Volcando mem_out (12x12) a 'C:/Users/danbg/src/proyecto_2_arqui_II/src/dsa_bilineal_seq/img_out_seq.hex'
# [TB] Dump completado.
# [TB][SEQ] Golden sequence almacenada en golden_seq[0..4095]
# 
# [TB] ===== RESETEANDO PARA CORRIDA 2: SIMD4 (16x16) ===== t=105430000
# 
# [TB] (Corrida 2) Forzando in_w_cfg=16, in_h_cfg=16, scale_q88_cfg=205 (Q8.8)
# 
# [TB][ANTES_SIMD] Dump inicial de bancos de entrada (primeros 16 elementos):
# [TB][ANTES_SIMD] mem_in [0]  = 0xdc
# [TB][ANTES_SIMD] mem_in [1]  = 0xdc
# [TB][ANTES_SIMD] mem_in [2]  = 0xdc
# [TB][ANTES_SIMD] mem_in [3]  = 0xdc
# [TB][ANTES_SIMD] mem_in [4]  = 0xdc
# [TB][ANTES_SIMD] mem_in [5]  = 0xdc
# [TB][ANTES_SIMD] mem_in [6]  = 0xdc
# [TB][ANTES_SIMD] mem_in [7]  = 0xdc
# [TB][ANTES_SIMD] mem_in [8]  = 0xdc
# [TB][ANTES_SIMD] mem_in [9]  = 0xdc
# [TB][ANTES_SIMD] mem_in [10]  = 0xdc
# [TB][ANTES_SIMD] mem_in [11]  = 0xdc
# [TB][ANTES_SIMD] mem_in [12]  = 0xdc
# [TB][ANTES_SIMD] mem_in [13]  = 0xdc
# [TB][ANTES_SIMD] mem_in [14]  = 0xdc
# [TB][ANTES_SIMD] mem_in [15]  = 0xdc
# [TB][ANTES_SIMD] mem_in1[0] = 0xdc
# [TB][ANTES_SIMD] mem_in1[1] = 0xdc
# [TB][ANTES_SIMD] mem_in1[2] = 0xdc
# [TB][ANTES_SIMD] mem_in1[3] = 0xdc
# [TB][ANTES_SIMD] mem_in1[4] = 0xdc
# [TB][ANTES_SIMD] mem_in1[5] = 0xdc
# [TB][ANTES_SIMD] mem_in1[6] = 0xdc
# [TB][ANTES_SIMD] mem_in1[7] = 0xdc
# [TB][ANTES_SIMD] mem_in1[8] = 0xdc
# [TB][ANTES_SIMD] mem_in1[9] = 0xdc
# [TB][ANTES_SIMD] mem_in1[10] = 0xdc
# [TB][ANTES_SIMD] mem_in1[11] = 0xdc
# [TB][ANTES_SIMD] mem_in1[12] = 0xdc
# [TB][ANTES_SIMD] mem_in1[13] = 0xdc
# [TB][ANTES_SIMD] mem_in1[14] = 0xdc
# [TB][ANTES_SIMD] mem_in1[15] = 0xdc
# [TB][ANTES_SIMD] mem_in2[0] = 0xdc
# [TB][ANTES_SIMD] mem_in2[1] = 0xdc
# [TB][ANTES_SIMD] mem_in2[2] = 0xdc
# [TB][ANTES_SIMD] mem_in2[3] = 0xdc
# [TB][ANTES_SIMD] mem_in2[4] = 0xdc
# [TB][ANTES_SIMD] mem_in2[5] = 0xdc
# [TB][ANTES_SIMD] mem_in2[6] = 0xdc
# [TB][ANTES_SIMD] mem_in2[7] = 0xdc
# [TB][ANTES_SIMD] mem_in2[8] = 0xdc
# [TB][ANTES_SIMD] mem_in2[9] = 0xdc
# [TB][ANTES_SIMD] mem_in2[10] = 0xdc
# [TB][ANTES_SIMD] mem_in2[11] = 0xdc
# [TB][ANTES_SIMD] mem_in2[12] = 0xdc
# [TB][ANTES_SIMD] mem_in2[13] = 0xdc
# [TB][ANTES_SIMD] mem_in2[14] = 0xdc
# [TB][ANTES_SIMD] mem_in2[15] = 0xdc
# [TB][ANTES_SIMD] mem_in3[0] = 0xdc
# [TB][ANTES_SIMD] mem_in3[1] = 0xdc
# [TB][ANTES_SIMD] mem_in3[2] = 0xdc
# [TB][ANTES_SIMD] mem_in3[3] = 0xdc
# [TB][ANTES_SIMD] mem_in3[4] = 0xdc
# [TB][ANTES_SIMD] mem_in3[5] = 0xdc
# [TB][ANTES_SIMD] mem_in3[6] = 0xdc
# [TB][ANTES_SIMD] mem_in3[7] = 0xdc
# [TB][ANTES_SIMD] mem_in3[8] = 0xdc
# [TB][ANTES_SIMD] mem_in3[9] = 0xdc
# [TB][ANTES_SIMD] mem_in3[10] = 0xdc
# [TB][ANTES_SIMD] mem_in3[11] = 0xdc
# [TB][ANTES_SIMD] mem_in3[12] = 0xdc
# [TB][ANTES_SIMD] mem_in3[13] = 0xdc
# [TB][ANTES_SIMD] mem_in3[14] = 0xdc
# [TB][ANTES_SIMD] mem_in3[15] = 0xdc
# 
# [TB] ===== INICIO CORRIDA 2: SIMD4 (16x16) ===== t=187530000
# 
# [TB][SIMD4] Forzando start_pulse_sw en t=187530000
# [SIMD][RUN=2][t=187710000] L0 WRITE addr=0 pix=0xdc
# [SIMD][RUN=2][t=187710000] L1 WRITE addr=1 pix=0xdc
# [SIMD][RUN=2][t=187710000] L2 WRITE addr=2 pix=0xdc
# [SIMD][RUN=2][t=187710000] L3 WRITE addr=3 pix=0xdc
# [SIMD] L0 WRITE ox=0 oy=0 addr=0 pix=0xdc | sx_int=0 ax_q=0 sy_int=0 ay_q=0 xi=0 yi=0 fx_q=0 fy_q=0 | addr00=0 addr10=1 addr01=16 addr11=17 | I00=220 I10=220 I01=220 I11=220
# [SIMD] L0 ADDRCHK t=187710000 ox=0 oy=0 out_w=12 | exp_addr=0 out_waddr=0 | valid_lane=1
# [SIMD] L0 MEMCHK  t=187710000 addr00=0 I00=220 mem_in=220 | addr10=1 I10=220 mem_in=220 | addr01=16 I01=220 mem_in=220 | addr11=17 I11=220 mem_in=220
# [SIMD] L1 WRITE ox=1 oy=0 addr=1 pix=0xdc | sx_int=1 ax_q=63 sy_int=0 ay_q=0 xi=1 yi=0 fx_q=63 fy_q=0 | addr00=1 addr10=2 addr01=17 addr11=18 | I00=220 I10=220 I01=220 I11=220
# [SIMD] L1 ADDRCHK t=187710000 ox=1 oy=0 out_w=12 | exp_addr=1 out_waddr=1 | valid_lane=1
# [SIMD] L1 MEMCHK  t=187710000 addr00=1 I00=220 mem_in=220 | addr10=2 I10=220 mem_in=220 | addr01=17 I01=220 mem_in=220 | addr11=18 I11=220 mem_in=25
# [SIMD] L2 WRITE ox=2 oy=0 addr=2 pix=0xdc | sx_int=2 ax_q=126 sy_int=0 ay_q=0 xi=2 yi=0 fx_q=126 fy_q=0 | addr00=2 addr10=3 addr01=18 addr11=19 | I00=220 I10=220 I01=220 I11=220
# [SIMD] L2 ADDRCHK t=187710000 ox=2 oy=0 out_w=12 | exp_addr=2 out_waddr=2 | valid_lane=1
# [SIMD] L2 MEMCHK  t=187710000 addr00=2 I00=220 mem_in=220 | addr10=3 I10=220 mem_in=220 | addr01=18 I01=220 mem_in=25 | addr11=19 I11=220 mem_in=34
# [SIMD] L3 WRITE ox=3 oy=0 addr=3 pix=0xdc | sx_int=3 ax_q=189 sy_int=0 ay_q=0 xi=3 yi=0 fx_q=189 fy_q=0 | addr00=3 addr10=4 addr01=19 addr11=20 | I00=220 I10=220 I01=220 I11=220
# [SIMD] L3 ADDRCHK t=187710000 ox=3 oy=0 out_w=12 | exp_addr=3 out_waddr=3 | valid_lane=1
# [SIMD] L3 MEMCHK  t=187710000 addr00=3 I00=220 mem_in=220 | addr10=4 I10=220 mem_in=220 | addr01=19 I01=220 mem_in=34 | addr11=20 I11=220 mem_in=42
# [SIMD][RUN=2][t=187830000] L0 WRITE addr=4 pix=0xdc
# [SIMD][RUN=2][t=187830000] L1 WRITE addr=5 pix=0xdc
# [SIMD][RUN=2][t=187830000] L2 WRITE addr=6 pix=0xdc
# [SIMD][RUN=2][t=187830000] L3 WRITE addr=7 pix=0xdc
# [SIMD] L0 WRITE ox=4 oy=0 addr=4 pix=0xdc | sx_int=4 ax_q=252 sy_int=0 ay_q=0 xi=4 yi=0 fx_q=252 fy_q=0 | addr00=4 addr10=5 addr01=20 addr11=21 | I00=220 I10=220 I01=220 I11=220
# [SIMD] L0 ADDRCHK t=187830000 ox=4 oy=0 out_w=12 | exp_addr=4 out_waddr=4 | valid_lane=1
# [SIMD] L0 MEMCHK  t=187830000 addr00=4 I00=220 mem_in=220 | addr10=5 I10=220 mem_in=220 | addr01=20 I01=220 mem_in=42 | addr11=21 I11=220 mem_in=51
# [SIMD] L1 WRITE ox=5 oy=0 addr=5 pix=0xdc | sx_int=6 ax_q=59 sy_int=0 ay_q=0 xi=6 yi=0 fx_q=59 fy_q=0 | addr00=6 addr10=7 addr01=22 addr11=23 | I00=220 I10=220 I01=220 I11=25
# [SIMD] L1 ADDRCHK t=187830000 ox=5 oy=0 out_w=12 | exp_addr=5 out_waddr=5 | valid_lane=1
# [SIMD] L1 MEMCHK  t=187830000 addr00=6 I00=220 mem_in=220 | addr10=7 I10=220 mem_in=220 | addr01=22 I01=220 mem_in=59 | addr11=23 I11=25 mem_in=68
# [SIMD] L2 WRITE ox=6 oy=0 addr=6 pix=0xdc | sx_int=7 ax_q=122 sy_int=0 ay_q=0 xi=7 yi=0 fx_q=122 fy_q=0 | addr00=7 addr10=8 addr01=23 addr11=24 | I00=220 I10=220 I01=25 I11=34
# [SIMD] L2 ADDRCHK t=187830000 ox=6 oy=0 out_w=12 | exp_addr=6 out_waddr=6 | valid_lane=1
# [SIMD] L2 MEMCHK  t=187830000 addr00=7 I00=220 mem_in=220 | addr10=8 I10=220 mem_in=220 | addr01=23 I01=25 mem_in=68 | addr11=24 I11=34 mem_in=76
# [SIMD] L3 WRITE ox=7 oy=0 addr=7 pix=0xdc | sx_int=8 ax_q=185 sy_int=0 ay_q=0 xi=8 yi=0 fx_q=185 fy_q=0 | addr00=8 addr10=9 addr01=24 addr11=25 | I00=220 I10=220 I01=34 I11=42
