src/dsa_bilineal_seq/simulation/modelsim/msim_transcript
# Reading C:/intelFPGA_lite/18.1/modelsim_ase/tcl/vsim/pref.tcl
# do top_dsa_seq_run_msim_rtl_verilog.do
# if {[file exists rtl_work]} {
# 	vdel -lib rtl_work -all
# }
# vlib rtl_work
# vmap work rtl_work
# Model Technology ModelSim - Intel FPGA Edition vmap 10.5b Lib Mapping Utility 2016.10 Oct  5 2016
# vmap work rtl_work 
# Copying C:/intelFPGA_lite/18.1/modelsim_ase/win32aloem/../modelsim.ini to modelsim.ini
# Modifying modelsim.ini
# 
# vlog -sv -work work +incdir+C:/Users/danbg/src/proyecto_2_arqui_II/src/dsa_bilineal_seq {C:/Users/danbg/src/proyecto_2_arqui_II/src/dsa_bilineal_seq/wide_onchip_mem.sv}
# Model Technology ModelSim - Intel FPGA Edition vlog 10.5b Compiler 2016.10 Oct  5 2016
# Start time: 21:13:57 on Nov 26,2025
# vlog -reportprogress 300 -sv -work work "+incdir+C:/Users/danbg/src/proyecto_2_arqui_II/src/dsa_bilineal_seq" C:/Users/danbg/src/proyecto_2_arqui_II/src/dsa_bilineal_seq/wide_onchip_mem.sv 
# -- Compiling module wide_onchip_mem
# 
# Top level modules:
# 	wide_onchip_mem
# End time: 21:13:57 on Nov 26,2025, Elapsed time: 0:00:00
# Errors: 0, Warnings: 0
# vlog -sv -work work +incdir+C:/Users/danbg/src/proyecto_2_arqui_II/src/dsa_bilineal_seq {C:/Users/danbg/src/proyecto_2_arqui_II/src/dsa_bilineal_seq/bilinear_simd4_wide.sv}
# Model Technology ModelSim - Intel FPGA Edition vlog 10.5b Compiler 2016.10 Oct  5 2016
# Start time: 21:13:57 on Nov 26,2025
# vlog -reportprogress 300 -sv -work work "+incdir+C:/Users/danbg/src/proyecto_2_arqui_II/src/dsa_bilineal_seq" C:/Users/danbg/src/proyecto_2_arqui_II/src/dsa_bilineal_seq/bilinear_simd4_wide.sv 
# -- Compiling module bilinear_simd4_wide
# 
# Top level modules:
# 	bilinear_simd4_wide
# End time: 21:13:57 on Nov 26,2025, Elapsed time: 0:00:00
# Errors: 0, Warnings: 0
# vlog -sv -work work +incdir+C:/Users/danbg/src/proyecto_2_arqui_II/src/dsa_bilineal_seq {C:/Users/danbg/src/proyecto_2_arqui_II/src/dsa_bilineal_seq/bilinear_seq_wide.sv}
# Model Technology ModelSim - Intel FPGA Edition vlog 10.5b Compiler 2016.10 Oct  5 2016
# Start time: 21:13:57 on Nov 26,2025
# vlog -reportprogress 300 -sv -work work "+incdir+C:/Users/danbg/src/proyecto_2_arqui_II/src/dsa_bilineal_seq" C:/Users/danbg/src/proyecto_2_arqui_II/src/dsa_bilineal_seq/bilinear_seq_wide.sv 
# -- Compiling module bilinear_seq_wide
# 
# Top level modules:
# 	bilinear_seq_wide
# End time: 21:13:57 on Nov 26,2025, Elapsed time: 0:00:00
# Errors: 0, Warnings: 0
# vlog -sv -work work +incdir+C:/Users/danbg/src/proyecto_2_arqui_II/src/dsa_bilineal_seq {C:/Users/danbg/src/proyecto_2_arqui_II/src/dsa_bilineal_seq/mem_read_controller.sv}
# Model Technology ModelSim - Intel FPGA Edition vlog 10.5b Compiler 2016.10 Oct  5 2016
# Start time: 21:13:57 on Nov 26,2025
# vlog -reportprogress 300 -sv -work work "+incdir+C:/Users/danbg/src/proyecto_2_arqui_II/src/dsa_bilineal_seq" C:/Users/danbg/src/proyecto_2_arqui_II/src/dsa_bilineal_seq/mem_read_controller.sv 
# -- Compiling module mem_read_controller
# 
# Top level modules:
# 	mem_read_controller
# End time: 21:13:57 on Nov 26,2025, Elapsed time: 0:00:00
# Errors: 0, Warnings: 0
# vlog -sv -work work +incdir+C:/Users/danbg/src/proyecto_2_arqui_II/src/dsa_bilineal_seq {C:/Users/danbg/src/proyecto_2_arqui_II/src/dsa_bilineal_seq/bilinear_arith.sv}
# Model Technology ModelSim - Intel FPGA Edition vlog 10.5b Compiler 2016.10 Oct  5 2016
# Start time: 21:13:57 on Nov 26,2025
# vlog -reportprogress 300 -sv -work work "+incdir+C:/Users/danbg/src/proyecto_2_arqui_II/src/dsa_bilineal_seq" C:/Users/danbg/src/proyecto_2_arqui_II/src/dsa_bilineal_seq/bilinear_arith.sv 
# -- Compiling module bilinear_arith
# 
# Top level modules:
# 	bilinear_arith
# End time: 21:13:57 on Nov 26,2025, Elapsed time: 0:00:00
# Errors: 0, Warnings: 0
# vlog -sv -work work +incdir+C:/Users/danbg/src/proyecto_2_arqui_II/src/dsa_bilineal_seq {C:/Users/danbg/src/proyecto_2_arqui_II/src/dsa_bilineal_seq/top_dsa_seq.sv}
# Model Technology ModelSim - Intel FPGA Edition vlog 10.5b Compiler 2016.10 Oct  5 2016
# Start time: 21:13:58 on Nov 26,2025
# vlog -reportprogress 300 -sv -work work "+incdir+C:/Users/danbg/src/proyecto_2_arqui_II/src/dsa_bilineal_seq" C:/Users/danbg/src/proyecto_2_arqui_II/src/dsa_bilineal_seq/top_dsa_seq.sv 
# -- Compiling module top_dsa_seq
# 
# Top level modules:
# 	top_dsa_seq
# End time: 21:13:58 on Nov 26,2025, Elapsed time: 0:00:00
# Errors: 0, Warnings: 0
# 
# vlog -sv -work work +incdir+C:/Users/danbg/src/proyecto_2_arqui_II/src/dsa_bilineal_seq {C:/Users/danbg/src/proyecto_2_arqui_II/src/dsa_bilineal_seq/tb_bilinear_seq.sv}
# Model Technology ModelSim - Intel FPGA Edition vlog 10.5b Compiler 2016.10 Oct  5 2016
# Start time: 21:13:58 on Nov 26,2025
# vlog -reportprogress 300 -sv -work work "+incdir+C:/Users/danbg/src/proyecto_2_arqui_II/src/dsa_bilineal_seq" C:/Users/danbg/src/proyecto_2_arqui_II/src/dsa_bilineal_seq/tb_bilinear_seq.sv 
# -- Compiling module tb_bilinear_seq
# 
# Top level modules:
# 	tb_bilinear_seq
# End time: 21:13:58 on Nov 26,2025, Elapsed time: 0:00:00
# Errors: 0, Warnings: 0
# 
# vsim -t 1ps -L altera_ver -L lpm_ver -L sgate_ver -L altera_mf_ver -L altera_lnsim_ver -L cyclonev_ver -L cyclonev_hssi_ver -L cyclonev_pcie_hip_ver -L rtl_work -L work -voptargs="+acc"  tb_bilinear_seq
# vsim -t 1ps -L altera_ver -L lpm_ver -L sgate_ver -L altera_mf_ver -L altera_lnsim_ver -L cyclonev_ver -L cyclonev_hssi_ver -L cyclonev_pcie_hip_ver -L rtl_work -L work -voptargs=""+acc"" tb_bilinear_seq 
# Start time: 21:13:58 on Nov 26,2025
# Loading sv_std.std
# Loading work.tb_bilinear_seq
# Loading work.top_dsa_seq
# Loading work.wide_onchip_mem
# Loading work.bilinear_seq_wide
# Loading work.mem_read_controller
# Loading work.bilinear_arith
# Loading work.bilinear_simd4_wide
# 
# add wave *
# view structure
# .main_pane.structure.interior.cs.body.struct
# view signals
# .main_pane.objects.interior.cs.body.tree
# run -all
# [wide_onchip_mem] No init file, clearing to 0x00000000.
# [SEQ][DBG][t=10000 cyc=0] state=0 busy=0 done=0
# [SEQ][DBG][t=30000 cyc=1] state=0 busy=0 done=0
# [SEQ][DBG][t=50000 cyc=2] state=0 busy=0 done=0
# [SEQ][DBG][t=70000 cyc=3] state=0 busy=0 done=0
# [SEQ][DBG][t=90000 cyc=4] state=0 busy=0 done=0
# [SEQ][DBG][t=110000 cyc=5] state=0 busy=0 done=0
# [SEQ][DBG][t=130000 cyc=6] state=0 busy=0 done=0
# [SEQ][DBG][t=150000 cyc=7] state=0 busy=0 done=0
# [SEQ][DBG][t=170000 cyc=8] state=0 busy=0 done=0
# [SEQ][DBG][t=190000 cyc=9] state=0 busy=0 done=0
# [SEQ][DBG][t=210000 cyc=10] state=0 busy=0 done=0
# [SEQ][DBG][t=230000 cyc=11] state=0 busy=0 done=0
# [SEQ][DBG][t=250000 cyc=12] state=0 busy=0 done=0
# [SEQ][DBG][t=270000 cyc=13] state=0 busy=0 done=0
# [SEQ][DBG][t=290000 cyc=14] state=0 busy=0 done=0
# [SEQ][DBG][t=310000 cyc=15] state=0 busy=0 done=0
# [SEQ][DBG][t=330000 cyc=16] state=0 busy=0 done=0
# [SEQ][DBG][t=350000 cyc=17] state=0 busy=0 done=0
# [SEQ][DBG][t=370000 cyc=18] state=0 busy=0 done=0
# [SEQ][DBG][t=390000 cyc=19] state=0 busy=0 done=0
# [SEQ][DBG][t=410000 cyc=20] state=0 busy=0 done=0
# [SEQ][DBG][t=430000 cyc=21] state=0 busy=0 done=0
# [SEQ][DBG][t=450000 cyc=22] state=0 busy=0 done=0
# [SEQ][DBG][t=470000 cyc=23] state=0 busy=0 done=0
# [SEQ][DBG][t=490000 cyc=24] state=0 busy=0 done=0
# [SEQ][DBG][t=510000 cyc=25] state=0 busy=0 done=0
# [SEQ][DBG][t=530000 cyc=26] state=0 busy=0 done=0
# [SEQ][DBG][t=550000 cyc=27] state=0 busy=0 done=0
# [SEQ][DBG][t=570000 cyc=28] state=0 busy=0 done=0
# [SEQ][DBG][t=590000 cyc=29] state=0 busy=0 done=0
# [SEQ][DBG][t=610000 cyc=30] state=0 busy=0 done=0
# [SEQ][DBG][t=630000 cyc=31] state=0 busy=0 done=0
# [SEQ][DBG][t=650000 cyc=32] state=0 busy=0 done=0
# [SEQ][DBG][t=670000 cyc=33] state=0 busy=0 done=0
# [SEQ][DBG][t=690000 cyc=34] state=0 busy=0 done=0
# [SEQ][DBG][t=710000 cyc=35] state=0 busy=0 done=0
# [SEQ][DBG][t=730000 cyc=36] state=0 busy=0 done=0
# [SEQ][DBG][t=750000 cyc=37] state=0 busy=0 done=0
# [SEQ][DBG][t=770000 cyc=38] state=0 busy=0 done=0
# [SEQ][DBG][t=790000 cyc=39] state=0 busy=0 done=0
# [SEQ][DBG][t=810000 cyc=40] state=0 busy=0 done=0
# [SEQ][DBG][t=830000 cyc=41] state=0 busy=0 done=0
# [SEQ][DBG][t=850000 cyc=42] state=0 busy=0 done=0
# [SEQ][DBG][t=870000 cyc=43] state=0 busy=0 done=0
# [SEQ][DBG][t=890000 cyc=44] state=0 busy=0 done=0
# [SEQ][DBG][t=910000 cyc=45] state=0 busy=0 done=0
# [SEQ][DBG][t=930000 cyc=46] state=0 busy=0 done=0
# [SEQ][DBG][t=950000 cyc=47] state=0 busy=0 done=0
# [SEQ][DBG][t=970000 cyc=48] state=0 busy=0 done=0
# [SEQ][DBG][t=990000 cyc=49] state=0 busy=0 done=0
# [SEQ][DBG][t=1010000 cyc=50] state=0 busy=0 done=0
# [SEQ][DBG][t=1030000 cyc=51] state=0 busy=0 done=0
# [SEQ][DBG][t=1050000 cyc=52] state=0 busy=0 done=0
# [SEQ][DBG][t=1070000 cyc=53] state=0 busy=0 done=0
# [SEQ][DBG][t=1090000 cyc=54] state=0 busy=0 done=0
# [SEQ][DBG][t=1110000 cyc=55] state=0 busy=0 done=0
# [SEQ][DBG][t=1130000 cyc=56] state=0 busy=0 done=0
# [SEQ][DBG][t=1150000 cyc=57] state=0 busy=0 done=0
# [SEQ][DBG][t=1170000 cyc=58] state=0 busy=0 done=0
# [SEQ][DBG][t=1190000 cyc=59] state=0 busy=0 done=0
# [SEQ][DBG][t=1210000 cyc=60] state=0 busy=0 done=0
# [SEQ][DBG][t=1230000 cyc=61] state=0 busy=0 done=0
# [SEQ][DBG][t=1250000 cyc=62] state=0 busy=0 done=0
# [SEQ][DBG][t=1270000 cyc=63] state=0 busy=0 done=0
# [SEQ][DBG][t=1290000 cyc=64] state=0 busy=0 done=0
# [SEQ][DBG][t=1310000 cyc=65] state=0 busy=0 done=0
# [SEQ][DBG][t=1330000 cyc=66] state=0 busy=0 done=0
# [SEQ][DBG][t=1350000 cyc=67] state=0 busy=0 done=0
# [SEQ][DBG][t=1370000 cyc=68] state=0 busy=0 done=0
# [SEQ][DBG][t=1390000 cyc=69] state=0 busy=0 done=0
# [SEQ][DBG][t=1410000 cyc=70] state=0 busy=0 done=0
# [SEQ][DBG][t=1430000 cyc=71] state=0 busy=0 done=0
# [SEQ][DBG][t=1450000 cyc=72] state=0 busy=0 done=0
# [SEQ][DBG][t=1470000 cyc=73] state=0 busy=0 done=0
# [SEQ][DBG][t=1490000 cyc=74] state=0 busy=0 done=0
# [SEQ][DBG][t=1510000 cyc=75] state=0 busy=0 done=0
# [SEQ][DBG][t=1530000 cyc=76] state=0 busy=0 done=0
# [SEQ][DBG][t=1550000 cyc=77] state=0 busy=0 done=0
# [SEQ][DBG][t=1570000 cyc=78] state=0 busy=0 done=0
# [SEQ][DBG][t=1590000 cyc=79] state=0 busy=0 done=0
# [SEQ][DBG][t=1610000 cyc=80] state=0 busy=0 done=0
# [SEQ][DBG][t=1630000 cyc=81] state=0 busy=0 done=0
# [SEQ][DBG][t=1650000 cyc=82] state=0 busy=0 done=0
# [SEQ][DBG][t=1670000 cyc=83] state=0 busy=0 done=0
# [SEQ][DBG][t=1690000 cyc=84] state=0 busy=0 done=0
# [SEQ][DBG][t=1710000 cyc=85] state=0 busy=0 done=0
# [SEQ][DBG][t=1730000 cyc=86] state=0 busy=0 done=0
# [SEQ][DBG][t=1750000 cyc=87] state=0 busy=0 done=0
# [SEQ][DBG][t=1770000 cyc=88] state=0 busy=0 done=0
# [SEQ][DBG][t=1790000 cyc=89] state=0 busy=0 done=0
# [SEQ][DBG][t=1810000 cyc=90] state=0 busy=0 done=0
# [SEQ][DBG][t=1830000 cyc=91] state=0 busy=0 done=0
# [SEQ][DBG][t=1850000 cyc=92] state=0 busy=0 done=0
# [SEQ][DBG][t=1870000 cyc=93] state=0 busy=0 done=0
# [SEQ][DBG][t=1890000 cyc=94] state=0 busy=0 done=0
# [SEQ][DBG][t=1910000 cyc=95] state=0 busy=0 done=0
# [SEQ][DBG][t=1930000 cyc=96] state=0 busy=0 done=0
# [SEQ][DBG][t=1950000 cyc=97] state=0 busy=0 done=0
# [SEQ][DBG][t=1970000 cyc=98] state=0 busy=0 done=0
# [SEQ][DBG][t=1990000 cyc=99] state=0 busy=0 done=0
# [SEQ][DBG][t=2010000 cyc=100] state=0 busy=0 done=0
# [SEQ][DBG][t=2030000 cyc=101] state=0 busy=0 done=0
# [SEQ][DBG][t=2050000 cyc=102] state=0 busy=0 done=0
# [SEQ][DBG][t=2070000 cyc=103] state=0 busy=0 done=0
# [SEQ][DBG][t=2090000 cyc=104] state=0 busy=0 done=0
# [SEQ][DBG][t=2110000 cyc=105] state=0 busy=0 done=0
# [SEQ][DBG][t=2130000 cyc=106] state=0 busy=0 done=0
# [SEQ][DBG][t=2150000 cyc=107] state=0 busy=0 done=0
# [SEQ][DBG][t=2170000 cyc=108] state=0 busy=0 done=0
# [SEQ][DBG][t=2190000 cyc=109] state=0 busy=0 done=0
# [SEQ][DBG][t=2210000 cyc=110] state=0 busy=0 done=0
# [SEQ][DBG][t=2230000 cyc=111] state=0 busy=0 done=0
# [SEQ][DBG][t=2250000 cyc=112] state=0 busy=0 done=0
# [SEQ][DBG][t=2270000 cyc=113] state=0 busy=0 done=0
# [SEQ][DBG][t=2290000 cyc=114] state=0 busy=0 done=0
# [SEQ][DBG][t=2310000 cyc=115] state=0 busy=0 done=0
# [SEQ][DBG][t=2330000 cyc=116] state=0 busy=0 done=0
# [SEQ][DBG][t=2350000 cyc=117] state=0 busy=0 done=0
# [SEQ][DBG][t=2370000 cyc=118] state=0 busy=0 done=0
# [SEQ][DBG][t=2390000 cyc=119] state=0 busy=0 done=0
# [SEQ][DBG][t=2410000 cyc=120] state=0 busy=0 done=0
# [SEQ][DBG][t=2430000 cyc=121] state=0 busy=0 done=0
# [SEQ][DBG][t=2450000 cyc=122] state=0 busy=0 done=0
# [SEQ][DBG][t=2470000 cyc=123] state=0 busy=0 done=0
# [SEQ][DBG][t=2490000 cyc=124] state=0 busy=0 done=0
# [SEQ][DBG][t=2510000 cyc=125] state=0 busy=0 done=0
# [SEQ][DBG][t=2530000 cyc=126] state=0 busy=0 done=0
# [SEQ][DBG][t=2550000 cyc=127] state=0 busy=0 done=0
# [SEQ][DBG][t=2570000 cyc=128] state=0 busy=0 done=0
# [SEQ][DBG][t=2590000 cyc=129] state=0 busy=0 done=0
# [SEQ][DBG][t=2610000 cyc=130] state=0 busy=0 done=0
# [SEQ][DBG][t=2630000 cyc=131] state=0 busy=0 done=0
# [SEQ][DBG][t=2650000 cyc=132] state=0 busy=0 done=0
# [SEQ][DBG][t=2670000 cyc=133] state=0 busy=0 done=0
# [SEQ][DBG][t=2690000 cyc=134] state=0 busy=0 done=0
# [SEQ][DBG][t=2710000 cyc=135] state=0 busy=0 done=0
# [SEQ][DBG][t=2730000 cyc=136] state=0 busy=0 done=0
# [SEQ][DBG][t=2750000 cyc=137] state=0 busy=0 done=0
# [SEQ][DBG][t=2770000 cyc=138] state=0 busy=0 done=0
# [SEQ][DBG][t=2790000 cyc=139] state=0 busy=0 done=0
# [SEQ][DBG][t=2810000 cyc=140] state=0 busy=0 done=0
# [SEQ][DBG][t=2830000 cyc=141] state=0 busy=0 done=0
# [SEQ][DBG][t=2850000 cyc=142] state=0 busy=0 done=0
# [SEQ][DBG][t=2870000 cyc=143] state=0 busy=0 done=0
# [SEQ][DBG][t=2890000 cyc=144] state=0 busy=0 done=0
# [SEQ][DBG][t=2910000 cyc=145] state=0 busy=0 done=0
# [SEQ][DBG][t=2930000 cyc=146] state=0 busy=0 done=0
# [SEQ][DBG][t=2950000 cyc=147] state=0 busy=0 done=0
# [SEQ][DBG][t=2970000 cyc=148] state=0 busy=0 done=0
# [SEQ][DBG][t=2990000 cyc=149] state=0 busy=0 done=0
# [SEQ][DBG][t=3010000 cyc=150] state=0 busy=0 done=0
# [SEQ][DBG][t=3030000 cyc=151] state=0 busy=0 done=0
# [SEQ][DBG][t=3050000 cyc=152] state=0 busy=0 done=0
# [SEQ][DBG][t=3070000 cyc=153] state=0 busy=0 done=0
# [SEQ][DBG][t=3090000 cyc=154] state=0 busy=0 done=0
# [SEQ][DBG][t=3110000 cyc=155] state=0 busy=0 done=0
# [SEQ][DBG][t=3130000 cyc=156] state=0 busy=0 done=0
# [SEQ][DBG][t=3150000 cyc=157] state=0 busy=0 done=0
# [SEQ][DBG][t=3170000 cyc=158] state=0 busy=0 done=0
# [SEQ][DBG][t=3190000 cyc=159] state=0 busy=0 done=0
# [SEQ][DBG][t=3210000 cyc=160] state=0 busy=0 done=0
# [SEQ][DBG][t=3230000 cyc=161] state=0 busy=0 done=0
# [SEQ][DBG][t=3250000 cyc=162] state=0 busy=0 done=0
# [SEQ][DBG][t=3270000 cyc=163] state=0 busy=0 done=0
# [SEQ][DBG][t=3290000 cyc=164] state=0 busy=0 done=0
# [SEQ][DBG][t=3310000 cyc=165] state=0 busy=0 done=0
# [SEQ][DBG][t=3330000 cyc=166] state=0 busy=0 done=0
# [SEQ][DBG][t=3350000 cyc=167] state=0 busy=0 done=0
# [SEQ][DBG][t=3370000 cyc=168] state=0 busy=0 done=0
# [SEQ][DBG][t=3390000 cyc=169] state=0 busy=0 done=0
# [SEQ][DBG][t=3410000 cyc=170] state=0 busy=0 done=0
# [SEQ][DBG][t=3430000 cyc=171] state=0 busy=0 done=0
# [SEQ][DBG][t=3450000 cyc=172] state=0 busy=0 done=0
# [SEQ][DBG][t=3470000 cyc=173] state=0 busy=0 done=0
# [SEQ][DBG][t=3490000 cyc=174] state=0 busy=0 done=0
# [SEQ][DBG][t=3510000 cyc=175] state=0 busy=0 done=0
# [SEQ][DBG][t=3530000 cyc=176] state=0 busy=0 done=0
# [SEQ][DBG][t=3550000 cyc=177] state=0 busy=0 done=0
# [SEQ][DBG][t=3570000 cyc=178] state=0 busy=0 done=0
# [SEQ][DBG][t=3590000 cyc=179] state=0 busy=0 done=0
# [SEQ][DBG][t=3610000 cyc=180] state=0 busy=0 done=0
# [SEQ][DBG][t=3630000 cyc=181] state=0 busy=0 done=0
# [SEQ][DBG][t=3650000 cyc=182] state=0 busy=0 done=0
# [SEQ][DBG][t=3670000 cyc=183] state=0 busy=0 done=0
# [SEQ][DBG][t=3690000 cyc=184] state=0 busy=0 done=0
# [SEQ][DBG][t=3710000 cyc=185] state=0 busy=0 done=0
# [SEQ][DBG][t=3730000 cyc=186] state=0 busy=0 done=0
# [SEQ][DBG][t=3750000 cyc=187] state=0 busy=0 done=0
# [SEQ][DBG][t=3770000 cyc=188] state=0 busy=0 done=0
# [SEQ][DBG][t=3790000 cyc=189] state=0 busy=0 done=0
# [SEQ][DBG][t=3810000 cyc=190] state=0 busy=0 done=0
# [SEQ][DBG][t=3830000 cyc=191] state=0 busy=0 done=0
# [SEQ][DBG][t=3850000 cyc=192] state=0 busy=0 done=0
# [SEQ][DBG][t=3870000 cyc=193] state=0 busy=0 done=0
# [SEQ][DBG][t=3890000 cyc=194] state=0 busy=0 done=0
# [SEQ][DBG][t=3910000 cyc=195] state=0 busy=0 done=0
# [SEQ][DBG][t=3930000 cyc=196] state=0 busy=0 done=0
# [SEQ][DBG][t=3950000 cyc=197] state=0 busy=0 done=0
# [SEQ][DBG][t=3970000 cyc=198] state=0 busy=0 done=0
# [SEQ][DBG][t=3990000 cyc=199] state=0 busy=0 done=0
# [TB] Cargando imagen desde 'C:/Users/danbg/src/proyecto_2_arqui_II/src/dsa_bilineal_seq/img_16x16.hex'...
# [TB] Imagen cargada. Primeros 4 words (16 bytes):
# [TB] mem_in[0] = 0xdcdcdcdc [px0=dc px1=dc px2=dc px3=dc]
# [TB] mem_in[1] = 0xdcdcdcdc [px0=dc px1=dc px2=dc px3=dc]
# [TB] mem_in[2] = 0xdcdcdcdc [px0=dc px1=dc px2=dc px3=dc]
# [TB] mem_in[3] = 0xdcdcdcdc [px0=dc px1=dc px2=dc px3=dc]
# 
# [TB][INICIAL] Dump de memoria de entrada (primeros 4 words):
# [TB][INICIAL] mem_in[0] = 0xdcdcdcdc
# [TB][INICIAL] mem_in[1] = 0xdcdcdcdc
# [TB][INICIAL] mem_in[2] = 0xdcdcdcdc
# [TB][INICIAL] mem_in[3] = 0xdcdcdcdc
# 
# [TB] ===== INICIO CORRIDA 1: SECUENCIAL (16x16) ===== t=20670000
# 
# [SEQ][MEM][t=20870000] ox=0 oy=0 xi=0 yi=0 fx=0 fy=0 TL=0xdc TR=0xdc BL=0xdc BR=0xdc
# [SEQ][MEM][t=20890000] ox=0 oy=0 xi=0 yi=0 fx=0 fy=0 TL=0xdc TR=0xdc BL=0xdc BR=0xdc
# [SEQ][RUN=1][t=21010000] WRITE addr=0 pix=0xdc | ox=0 oy=0 | sx_int=0 sy_int=0 ax=0 ay=0 | xi=0 yi=0 fx=0 fy=0
# [SEQ][MEM][t=21150000] ox=1 oy=0 xi=1 yi=0 fx=63 fy=0 TL=0xdc TR=0xdc BL=0x2a BR=0x33
# [SEQ][MEM][t=21170000] ox=1 oy=0 xi=1 yi=0 fx=63 fy=0 TL=0xdc TR=0xdc BL=0x2a BR=0x33
# [SEQ][RUN=1][t=21290000] WRITE addr=1 pix=0xdc | ox=1 oy=0 | sx_int=1 sy_int=0 ax=63 ay=0 | xi=1 yi=0 fx=63 fy=0
# [SEQ][MEM][t=21430000] ox=2 oy=0 xi=2 yi=0 fx=126 fy=0 TL=0xdc TR=0xdc BL=0x33 BR=0x3b
# [SEQ][MEM][t=21450000] ox=2 oy=0 xi=2 yi=0 fx=126 fy=0 TL=0xdc TR=0xdc BL=0x33 BR=0x3b
# [SEQ][RUN=1][t=21570000] WRITE addr=2 pix=0xdc | ox=2 oy=0 | sx_int=2 sy_int=0 ax=126 ay=0 | xi=2 yi=0 fx=126 fy=0
# [SEQ][MEM][t=21730000] ox=3 oy=0 xi=3 yi=0 fx=189 fy=0 TL=0xdc TR=0xdc BL=0x3b BR=0xdc
# [SEQ][MEM][t=21750000] ox=3 oy=0 xi=3 yi=0 fx=189 fy=0 TL=0xdc TR=0xdc BL=0x3b BR=0xdc
# [SEQ][RUN=1][t=21870000] WRITE addr=3 pix=0xdc | ox=3 oy=0 | sx_int=3 sy_int=0 ax=189 ay=0 | xi=3 yi=0 fx=189 fy=0
# [SEQ][MEM][t=22010000] ox=4 oy=0 xi=4 yi=0 fx=252 fy=0 TL=0xdc TR=0xdc BL=0xdc BR=0x4c
# [SEQ][MEM][t=22030000] ox=4 oy=0 xi=4 yi=0 fx=252 fy=0 TL=0xdc TR=0xdc BL=0xdc BR=0x4c
# [SEQ][RUN=1][t=22150000] WRITE addr=4 pix=0xdc | ox=4 oy=0 | sx_int=4 sy_int=0 ax=252 ay=0 | xi=4 yi=0 fx=252 fy=0
# [SEQ][MEM][t=22290000] ox=5 oy=0 xi=6 yi=0 fx=59 fy=0 TL=0xdc TR=0xdc BL=0x55 BR=0x5d
# [SEQ][MEM][t=22310000] ox=5 oy=0 xi=6 yi=0 fx=59 fy=0 TL=0xdc TR=0xdc BL=0x55 BR=0x5d
# [SEQ][RUN=1][t=22430000] WRITE addr=5 pix=0xdc | ox=5 oy=0 | sx_int=6 sy_int=0 ax=59 ay=0 | xi=6 yi=0 fx=59 fy=0
# [SEQ][MEM][t=22590000] ox=6 oy=0 xi=7 yi=0 fx=122 fy=0 TL=0xdc TR=0xdc BL=0x5d BR=0xdc
# [SEQ][MEM][t=22610000] ox=6 oy=0 xi=7 yi=0 fx=122 fy=0 TL=0xdc TR=0xdc BL=0x5d BR=0xdc
# [SEQ][RUN=1][t=22730000] WRITE addr=6 pix=0xdc | ox=6 oy=0 | sx_int=7 sy_int=0 ax=122 ay=0 | xi=7 yi=0 fx=122 fy=0
# [SEQ][MEM][t=22870000] ox=7 oy=0 xi=8 yi=0 fx=185 fy=0 TL=0xdc TR=0xdc BL=0x66 BR=0x6e
# [SEQ][MEM][t=22890000] ox=7 oy=0 xi=8 yi=0 fx=185 fy=0 TL=0xdc TR=0xdc BL=0x66 BR=0x6e
# [SEQ][RUN=1][t=23010000] WRITE addr=7 pix=0xdc | ox=7 oy=0 | sx_int=8 sy_int=0 ax=185 ay=0 | xi=8 yi=0 fx=185 fy=0
# [SEQ][MEM][t=23150000] ox=8 oy=0 xi=9 yi=0 fx=248 fy=0 TL=0xdc TR=0xdc BL=0x6e BR=0x77
# [SEQ][MEM][t=23170000] ox=8 oy=0 xi=9 yi=0 fx=248 fy=0 TL=0xdc TR=0xdc BL=0x6e BR=0x77
# [SEQ][RUN=1][t=23290000] WRITE addr=8 pix=0xdc | ox=8 oy=0 | sx_int=9 sy_int=0 ax=248 ay=0 | xi=9 yi=0 fx=248 fy=0
# [SEQ][MEM][t=23450000] ox=9 oy=0 xi=11 yi=0 fx=55 fy=0 TL=0xdc TR=0xdc BL=0xdc BR=0x66
# [SEQ][MEM][t=23470000] ox=9 oy=0 xi=11 yi=0 fx=55 fy=0 TL=0xdc TR=0xdc BL=0xdc BR=0x66
# [SEQ][RUN=1][t=23590000] WRITE addr=9 pix=0xdc | ox=9 oy=0 | sx_int=11 sy_int=0 ax=55 ay=0 | xi=11 yi=0 fx=55 fy=0
# [SEQ][MEM][t=23730000] ox=10 oy=0 xi=12 yi=0 fx=118 fy=0 TL=0xdc TR=0xdc BL=0x88 BR=0x90
# [SEQ][MEM][t=23750000] ox=10 oy=0 xi=12 yi=0 fx=118 fy=0 TL=0xdc TR=0xdc BL=0x88 BR=0x90
# [SEQ][RUN=1][t=23870000] WRITE addr=10 pix=0xdc | ox=10 oy=0 | sx_int=12 sy_int=0 ax=118 ay=0 | xi=12 yi=0 fx=118 fy=0
# [SEQ][MEM][t=24010000] ox=11 oy=0 xi=13 yi=0 fx=181 fy=0 TL=0xdc TR=0xdc BL=0x90 BR=0x99
# [SEQ][MEM][t=24030000] ox=11 oy=0 xi=13 yi=0 fx=181 fy=0 TL=0xdc TR=0xdc BL=0x90 BR=0x99
# [SEQ][RUN=1][t=24150000] WRITE addr=11 pix=0xdc | ox=11 oy=0 | sx_int=13 sy_int=0 ax=181 ay=0 | xi=13 yi=0 fx=181 fy=0
# [SEQ][MEM][t=24310000] ox=0 oy=1 xi=0 yi=1 fx=0 fy=63 TL=0xdc TR=0xdc BL=0x88 BR=0x90
# [SEQ][MEM][t=24330000] ox=0 oy=1 xi=0 yi=1 fx=0 fy=63 TL=0xdc TR=0xdc BL=0x88 BR=0x90
# [SEQ][RUN=1][t=24450000] WRITE addr=12 pix=0xc7 | ox=0 oy=1 | sx_int=0 sy_int=1 ax=0 ay=63 | xi=0 yi=1 fx=0 fy=63
# [SEQ][MEM][t=24590000] ox=1 oy=1 xi=1 yi=1 fx=63 fy=63 TL=0x2a TR=0x33 BL=0x4c BR=0x55
# [SEQ][MEM][t=24610000] ox=1 oy=1 xi=1 yi=1 fx=63 fy=63 TL=0x2a TR=0x33 BL=0x4c BR=0x55
# [SEQ][RUN=1][t=24730000] WRITE addr=13 pix=0x35 | ox=1 oy=1 | sx_int=1 sy_int=1 ax=63 ay=63 | xi=1 yi=1 fx=63 fy=63
# [SEQ][MEM][t=24870000] ox=2 oy=1 xi=2 yi=1 fx=126 fy=63 TL=0x33 TR=0x3b BL=0x55 BR=0x5d
# [SEQ][MEM][t=24890000] ox=2 oy=1 xi=2 yi=1 fx=126 fy=63 TL=0x33 TR=0x3b BL=0x55 BR=0x5d
# [SEQ][RUN=1][t=25010000] WRITE addr=14 pix=0x3f | ox=2 oy=1 | sx_int=2 sy_int=1 ax=126 ay=63 | xi=2 yi=1 fx=126 fy=63
# [SEQ][MEM][t=25170000] ox=3 oy=1 xi=3 yi=1 fx=189 fy=63 TL=0x3b TR=0xdc BL=0x5d BR=0xdc
# [SEQ][MEM][t=25190000] ox=3 oy=1 xi=3 yi=1 fx=189 fy=63 TL=0x3b TR=0xdc BL=0x5d BR=0xdc
