src/dsa_bilineal_seq/simulation/modelsim/msim_transcript
# Reading C:/intelFPGA_lite/18.1/modelsim_ase/tcl/vsim/pref.tcl
# do top_dsa_seq_run_msim_rtl_verilog.do
# if {[file exists rtl_work]} {
# 	vdel -lib rtl_work -all
# }
# vlib rtl_work
# vmap work rtl_work
# Model Technology ModelSim - Intel FPGA Edition vmap 10.5b Lib Mapping Utility 2016.10 Oct  5 2016
# vmap work rtl_work 
# Copying C:/intelFPGA_lite/18.1/modelsim_ase/win32aloem/../modelsim.ini to modelsim.ini
# Modifying modelsim.ini
# 
# vlog -sv -work work +incdir+C:/Users/danbg/src/proyecto_2_arqui_II/src/dsa_bilineal_seq {C:/Users/danbg/src/proyecto_2_arqui_II/src/dsa_bilineal_seq/bilinear_simd4.sv}
# Model Technology ModelSim - Intel FPGA Edition vlog 10.5b Compiler 2016.10 Oct  5 2016
# Start time: 20:24:05 on Nov 22,2025
# vlog -reportprogress 300 -sv -work work "+incdir+C:/Users/danbg/src/proyecto_2_arqui_II/src/dsa_bilineal_seq" C:/Users/danbg/src/proyecto_2_arqui_II/src/dsa_bilineal_seq/bilinear_simd4.sv 
# -- Compiling module bilinear_simd4
# 
# Top level modules:
# 	bilinear_simd4
# End time: 20:24:05 on Nov 22,2025, Elapsed time: 0:00:00
# Errors: 0, Warnings: 0
# vlog -sv -work work +incdir+C:/Users/danbg/src/proyecto_2_arqui_II/src/dsa_bilineal_seq {C:/Users/danbg/src/proyecto_2_arqui_II/src/dsa_bilineal_seq/onchip_mem_dp.sv}
# Model Technology ModelSim - Intel FPGA Edition vlog 10.5b Compiler 2016.10 Oct  5 2016
# Start time: 20:24:05 on Nov 22,2025
# vlog -reportprogress 300 -sv -work work "+incdir+C:/Users/danbg/src/proyecto_2_arqui_II/src/dsa_bilineal_seq" C:/Users/danbg/src/proyecto_2_arqui_II/src/dsa_bilineal_seq/onchip_mem_dp.sv 
# -- Compiling module onchip_mem_dp
# 
# Top level modules:
# 	onchip_mem_dp
# End time: 20:24:05 on Nov 22,2025, Elapsed time: 0:00:00
# Errors: 0, Warnings: 0
# vlog -sv -work work +incdir+C:/Users/danbg/src/proyecto_2_arqui_II/src/dsa_bilineal_seq {C:/Users/danbg/src/proyecto_2_arqui_II/src/dsa_bilineal_seq/top_dsa_seq.sv}
# Model Technology ModelSim - Intel FPGA Edition vlog 10.5b Compiler 2016.10 Oct  5 2016
# Start time: 20:24:05 on Nov 22,2025
# vlog -reportprogress 300 -sv -work work "+incdir+C:/Users/danbg/src/proyecto_2_arqui_II/src/dsa_bilineal_seq" C:/Users/danbg/src/proyecto_2_arqui_II/src/dsa_bilineal_seq/top_dsa_seq.sv 
# -- Compiling module top_dsa_seq
# 
# Top level modules:
# 	top_dsa_seq
# End time: 20:24:05 on Nov 22,2025, Elapsed time: 0:00:00
# Errors: 0, Warnings: 0
# vlog -sv -work work +incdir+C:/Users/danbg/src/proyecto_2_arqui_II/src/dsa_bilineal_seq {C:/Users/danbg/src/proyecto_2_arqui_II/src/dsa_bilineal_seq/bilinear_seq.sv}
# Model Technology ModelSim - Intel FPGA Edition vlog 10.5b Compiler 2016.10 Oct  5 2016
# Start time: 20:24:05 on Nov 22,2025
# vlog -reportprogress 300 -sv -work work "+incdir+C:/Users/danbg/src/proyecto_2_arqui_II/src/dsa_bilineal_seq" C:/Users/danbg/src/proyecto_2_arqui_II/src/dsa_bilineal_seq/bilinear_seq.sv 
# -- Compiling module bilinear_seq
# 
# Top level modules:
# 	bilinear_seq
# End time: 20:24:05 on Nov 22,2025, Elapsed time: 0:00:00
# Errors: 0, Warnings: 0
# 
# vlog -sv -work work +incdir+C:/Users/danbg/src/proyecto_2_arqui_II/src/dsa_bilineal_seq {C:/Users/danbg/src/proyecto_2_arqui_II/src/dsa_bilineal_seq/tb_bilinear_seq.sv}
# Model Technology ModelSim - Intel FPGA Edition vlog 10.5b Compiler 2016.10 Oct  5 2016
# Start time: 20:24:05 on Nov 22,2025
# vlog -reportprogress 300 -sv -work work "+incdir+C:/Users/danbg/src/proyecto_2_arqui_II/src/dsa_bilineal_seq" C:/Users/danbg/src/proyecto_2_arqui_II/src/dsa_bilineal_seq/tb_bilinear_seq.sv 
# -- Compiling module tb_bilinear_seq
# 
# Top level modules:
# 	tb_bilinear_seq
# End time: 20:24:06 on Nov 22,2025, Elapsed time: 0:00:01
# Errors: 0, Warnings: 0
# 
# vsim -t 1ps -L altera_ver -L lpm_ver -L sgate_ver -L altera_mf_ver -L altera_lnsim_ver -L cyclonev_ver -L cyclonev_hssi_ver -L cyclonev_pcie_hip_ver -L rtl_work -L work -voptargs="+acc"  tb_bilinear_seq
# vsim -t 1ps -L altera_ver -L lpm_ver -L sgate_ver -L altera_mf_ver -L altera_lnsim_ver -L cyclonev_ver -L cyclonev_hssi_ver -L cyclonev_pcie_hip_ver -L rtl_work -L work -voptargs=""+acc"" tb_bilinear_seq 
# Start time: 20:24:06 on Nov 22,2025
# Loading sv_std.std
# Loading work.tb_bilinear_seq
# Loading work.top_dsa_seq
# Loading work.onchip_mem_dp
# Loading work.bilinear_seq
# Loading work.bilinear_simd4
# 
# add wave *
# view structure
# .main_pane.structure.interior.cs.body.struct
# view signals
# .main_pane.objects.interior.cs.body.tree
# run -all
# [TB] Forzando in_w_cfg=10, in_h_cfg=10, scale_q88_cfg=205 (Q8.8)
# [TB] Cargando imagen de entrada desde 'C:/Users/danbg/src/proyecto_2_arqui_II/src/dsa_bilineal_seq/img_in_10x10.hex' en mem_in...
# [TB] mem_in[0] = 0xdc
# [TB] mem_in[1] = 0xdc
# [TB] mem_in[2] = 0xdc
# [TB] mem_in[3] = 0xdc
# [TB] mem_in[4] = 0xdc
# [TB] mem_in[5] = 0xdc
# [TB] mem_in[6] = 0xdc
# [TB] mem_in[7] = 0xdc
# [TB] mem_in[8] = 0xdc
# [TB] mem_in[9] = 0xdc
# [TB] mem_in[10] = 0xdc
# [TB] mem_in[11] = 0xdc
# [TB] mem_in[12] = 0x2a
# [TB] mem_in[13] = 0x38
# [TB] mem_in[14] = 0x46
# [TB] mem_in[15] = 0x55
# 
# [TB] ===== INICIO CORRIDA 1: SECUENCIAL (10x10) ===== t=82110000
# 
# [TB][SEQ] Forzando start_pulse_sw en t=82110000
# [SEQ][RUN=1][t=82330000] WRITE ox=0 oy=0 addr=0 pix=0xdc | sx_fix=0.0 sy_fix=0.0 | xi=0 yi=0 fx_q=0 fy_q=0 I00=220 I10=220 I01=220 I11=220
# [SEQ][RUN=1][t=82490000] WRITE ox=1 oy=0 addr=1 pix=0xdc | sx_fix=1.63 sy_fix=0.0 | xi=1 yi=0 fx_q=63 fy_q=0 I00=220 I10=220 I01=220 I11=220
# [SEQ][RUN=1][t=82650000] WRITE ox=2 oy=0 addr=2 pix=0x82 | sx_fix=2.126 sy_fix=0.0 | xi=2 yi=0 fx_q=126 fy_q=0 I00=42 I10=220 I01=220 I11=42
# [SEQ][RUN=1][t=82810000] WRITE ox=3 oy=0 addr=3 pix=0xb1 | sx_fix=3.189 sy_fix=0.0 | xi=3 yi=0 fx_q=189 fy_q=0 I00=56 I10=220 I01=220 I11=56
# [SEQ][RUN=1][t=82970000] WRITE ox=4 oy=0 addr=4 pix=0xda | sx_fix=4.252 sy_fix=0.0 | xi=4 yi=0 fx_q=252 fy_q=0 I00=70 I10=220 I01=220 I11=70
# [SEQ][RUN=1][t=83130000] WRITE ox=5 oy=0 addr=5 pix=0x74 | sx_fix=6.59 sy_fix=0.0 | xi=6 yi=0 fx_q=59 fy_q=0 I00=85 I10=220 I01=220 I11=99
# [SEQ][RUN=1][t=83290000] WRITE ox=6 oy=0 addr=6 pix=0xa4 | sx_fix=7.122 sy_fix=0.0 | xi=7 yi=0 fx_q=122 fy_q=0 I00=113 I10=220 I01=220 I11=113
# [SEQ][RUN=1][t=83450000] WRITE ox=7 oy=0 addr=7 pix=0xdc | sx_fix=8.185 sy_fix=0.0 | xi=8 yi=0 fx_q=185 fy_q=0 I00=220 I10=220 I01=220 I11=220
# [SEQ][RUN=1][t=83630000] WRITE ox=0 oy=1 addr=8 pix=0xdc | sx_fix=0.0 sy_fix=1.63 | xi=0 yi=1 fx_q=0 fy_q=63 I00=220 I10=220 I01=220 I11=220
# [SEQ][RUN=1][t=83790000] WRITE ox=1 oy=1 addr=9 pix=0x4b | sx_fix=1.63 sy_fix=1.63 | xi=1 yi=1 fx_q=63 fy_q=63 I00=42 I10=220 I01=42 I11=42
# [SEQ][RUN=1][t=83950000] WRITE ox=2 oy=1 addr=10 pix=0x85 | sx_fix=2.126 sy_fix=1.63 | xi=2 yi=1 fx_q=126 fy_q=63 I00=220 I10=42 I01=56 I11=220
# [SEQ][RUN=1][t=84110000] WRITE ox=3 oy=1 addr=11 pix=0x3e | sx_fix=3.189 sy_fix=1.63 | xi=3 yi=1 fx_q=189 fy_q=63 I00=70 I10=56 I01=70 I11=70
# [SEQ][RUN=1][t=84270000] WRITE ox=4 oy=1 addr=12 pix=0x4a | sx_fix=4.252 sy_fix=1.63 | xi=4 yi=1 fx_q=252 fy_q=63 I00=85 I10=70 I01=85 I11=85
# [SEQ][RUN=1][t=84430000] WRITE ox=5 oy=1 addr=13 pix=0x66 | sx_fix=6.59 sy_fix=1.63 | xi=6 yi=1 fx_q=59 fy_q=63 I00=99 I10=99 I01=113 I11=113
# [SEQ][RUN=1][t=84590000] WRITE ox=6 oy=1 addr=14 pix=0xb6 | sx_fix=7.122 sy_fix=1.63 | xi=7 yi=1 fx_q=122 fy_q=63 I00=220 I10=113 I01=220 I11=220
# [SEQ][RUN=1][t=84750000] WRITE ox=7 oy=1 addr=15 pix=0xbd | sx_fix=8.185 sy_fix=1.63 | xi=8 yi=1 fx_q=185 fy_q=63 I00=141 I10=220 I01=220 I11=141
# [SEQ][RUN=1][t=84930000] WRITE ox=0 oy=2 addr=16 pix=0x84 | sx_fix=0.0 sy_fix=2.126 | xi=0 yi=2 fx_q=0 fy_q=126 I00=220 I10=220 I01=42 I11=220
# [SEQ][RUN=1][t=85090000] WRITE ox=1 oy=2 addr=17 pix=0x73 | sx_fix=1.63 sy_fix=2.126 | xi=1 yi=2 fx_q=63 fy_q=126 I00=56 I10=42 I01=220 I11=56
# [SEQ][RUN=1][t=85250000] WRITE ox=2 oy=2 addr=18 pix=0x6b | sx_fix=2.126 sy_fix=2.126 | xi=2 yi=2 fx_q=126 fy_q=126 I00=70 I10=220 I01=70 I11=70
# [SEQ][RUN=1][t=85410000] WRITE ox=3 oy=2 addr=19 pix=0x92 | sx_fix=3.189 sy_fix=2.126 | xi=3 yi=2 fx_q=189 fy_q=126 I00=220 I10=70 I01=85 I11=220
# [SEQ][RUN=1][t=85570000] WRITE ox=4 oy=2 addr=20 pix=0x5c | sx_fix=4.252 sy_fix=2.126 | xi=4 yi=2 fx_q=252 fy_q=126 I00=99 I10=85 I01=99 I11=99
# [SEQ][RUN=1][t=85730000] WRITE ox=5 oy=2 addr=21 pix=0xa6 | sx_fix=6.59 sy_fix=2.126 | xi=6 yi=2 fx_q=59 fy_q=126 I00=113 I10=113 I01=220 I11=220
# [SEQ][RUN=1][t=85890000] WRITE ox=6 oy=2 addr=22 pix=0xa0 | sx_fix=7.122 sy_fix=2.126 | xi=7 yi=2 fx_q=122 fy_q=126 I00=141 I10=220 I01=141 I11=141
# [SEQ][RUN=1][t=86050000] WRITE ox=7 oy=2 addr=23 pix=0x9f | sx_fix=8.185 sy_fix=2.126 | xi=8 yi=2 fx_q=185 fy_q=126 I00=155 I10=141 I01=220 I11=155
# [SEQ][RUN=1][t=86230000] WRITE ox=0 oy=3 addr=24 pix=0x63 | sx_fix=0.0 sy_fix=3.189 | xi=0 yi=3 fx_q=0 fy_q=189 I00=220 I10=220 I01=56 I11=220
# [SEQ][RUN=1][t=86390000] WRITE ox=1 oy=3 addr=25 pix=0x45 | sx_fix=1.63 sy_fix=3.189 | xi=1 yi=3 fx_q=63 fy_q=189 I00=70 I10=56 I01=70 I11=70
# [SEQ][RUN=1][t=86550000] WRITE ox=2 oy=3 addr=26 pix=0x86 | sx_fix=2.126 sy_fix=3.189 | xi=2 yi=3 fx_q=126 fy_q=189 I00=85 I10=70 I01=220 I11=85
# [SEQ][RUN=1][t=86710000] WRITE ox=3 oy=3 addr=27 pix=0x7a | sx_fix=3.189 sy_fix=3.189 | xi=3 yi=3 fx_q=189 fy_q=189 I00=99 I10=220 I01=99 I11=99
# [SEQ][RUN=1][t=86870000] WRITE ox=4 oy=3 addr=28 pix=0xbc | sx_fix=4.252 sy_fix=3.189 | xi=4 yi=3 fx_q=252 fy_q=189 I00=220 I10=99 I01=113 I11=220
# [SEQ][RUN=1][t=87030000] WRITE ox=5 oy=3 addr=29 pix=0xa2 | sx_fix=6.59 sy_fix=3.189 | xi=6 yi=3 fx_q=59 fy_q=189 I00=220 I10=220 I01=141 I11=141
# [SEQ][RUN=1][t=87190000] WRITE ox=6 oy=3 addr=30 pix=0x99 | sx_fix=7.122 sy_fix=3.189 | xi=7 yi=3 fx_q=122 fy_q=189 I00=155 I10=141 I01=155 I11=155
# [SEQ][RUN=1][t=87350000] WRITE ox=7 oy=3 addr=31 pix=0xb1 | sx_fix=8.185 sy_fix=3.189 | xi=8 yi=3 fx_q=185 fy_q=189 I00=170 I10=155 I01=220 I11=170
# [SEQ][RUN=1][t=87530000] WRITE ox=0 oy=4 addr=32 pix=0x48 | sx_fix=0.0 sy_fix=4.252 | xi=0 yi=4 fx_q=0 fy_q=252 I00=220 I10=220 I01=70 I11=220
# [SEQ][RUN=1][t=87690000] WRITE ox=1 oy=4 addr=33 pix=0x55 | sx_fix=1.63 sy_fix=4.252 | xi=1 yi=4 fx_q=63 fy_q=252 I00=85 I10=70 I01=85 I11=85
# [SEQ][RUN=1][t=87850000] WRITE ox=2 oy=4 addr=34 pix=0x63 | sx_fix=2.126 sy_fix=4.252 | xi=2 yi=4 fx_q=126 fy_q=252 I00=99 I10=85 I01=99 I11=99
# [SEQ][RUN=1][t=88010000] WRITE ox=3 oy=4 addr=35 pix=0x8c | sx_fix=3.189 sy_fix=4.252 | xi=3 yi=4 fx_q=189 fy_q=252 I00=113 I10=99 I01=220 I11=113
# [SEQ][RUN=1][t=88170000] WRITE ox=4 oy=4 addr=36 pix=0xdc | sx_fix=4.252 sy_fix=4.252 | xi=4 yi=4 fx_q=252 fy_q=252 I00=220 I10=220 I01=220 I11=220
# [SEQ][RUN=1][t=88330000] WRITE ox=5 oy=4 addr=37 pix=0x9c | sx_fix=6.59 sy_fix=4.252 | xi=6 yi=4 fx_q=59 fy_q=252 I00=220 I10=141 I01=155 I11=155
# [SEQ][RUN=1][t=88490000] WRITE ox=6 oy=4 addr=38 pix=0xaa | sx_fix=7.122 sy_fix=4.252 | xi=7 yi=4 fx_q=122 fy_q=252 I00=170 I10=155 I01=170 I11=170
# [SEQ][RUN=1][t=88650000] WRITE ox=7 oy=4 addr=39 pix=0xc2 | sx_fix=8.185 sy_fix=4.252 | xi=8 yi=4 fx_q=185 fy_q=252 I00=184 I10=170 I01=220 I11=184
# [SEQ][RUN=1][t=88830000] WRITE ox=0 oy=5 addr=40 pix=0xc0 | sx_fix=0.0 sy_fix=6.59 | xi=0 yi=6 fx_q=0 fy_q=59 I00=220 I10=220 I01=99 I11=220
# [SEQ][RUN=1][t=88990000] WRITE ox=1 oy=5 addr=41 pix=0x6e | sx_fix=1.63 sy_fix=6.59 | xi=1 yi=6 fx_q=63 fy_q=59 I00=113 I10=99 I01=113 I11=113
# [SEQ][RUN=1][t=89150000] WRITE ox=2 oy=5 addr=42 pix=0xb3 | sx_fix=2.126 sy_fix=6.59 | xi=2 yi=6 fx_q=126 fy_q=59 I00=220 I10=113 I01=220 I11=220
# [SEQ][RUN=1][t=89310000] WRITE ox=3 oy=5 addr=43 pix=0xba | sx_fix=3.189 sy_fix=6.59 | xi=3 yi=6 fx_q=189 fy_q=59 I00=141 I10=220 I01=141 I11=141
# [SEQ][RUN=1][t=89470000] WRITE ox=4 oy=5 addr=44 pix=0x90 | sx_fix=4.252 sy_fix=6.59 | xi=4 yi=6 fx_q=252 fy_q=59 I00=155 I10=141 I01=155 I11=155
# [SEQ][RUN=1][t=89630000] WRITE ox=5 oy=5 addr=45 pix=0xb6 | sx_fix=6.59 sy_fix=6.59 | xi=6 yi=6 fx_q=59 fy_q=59 I00=170 I10=220 I01=184 I11=184
# [SEQ][RUN=1][t=89790000] WRITE ox=6 oy=5 addr=46 pix=0xcc | sx_fix=7.122 sy_fix=6.59 | xi=7 yi=6 fx_q=122 fy_q=59 I00=220 I10=184 I01=198 I11=220
# [SEQ][RUN=1][t=89950000] WRITE ox=7 oy=5 addr=47 pix=0xcd | sx_fix=8.185 sy_fix=6.59 | xi=8 yi=6 fx_q=185 fy_q=59 I00=212 I10=198 I01=220 I11=212
# [SEQ][RUN=1][t=90130000] WRITE ox=0 oy=6 addr=48 pix=0xac | sx_fix=0.0 sy_fix=7.122 | xi=0 yi=7 fx_q=0 fy_q=122 I00=226 I10=220 I01=113 I11=220
# [SEQ][RUN=1][t=90290000] WRITE ox=1 oy=6 addr=49 pix=0xce | sx_fix=1.63 sy_fix=7.122 | xi=1 yi=7 fx_q=63 fy_q=122 I00=220 I10=113 I01=220 I11=220
# [SEQ][RUN=1][t=90450000] WRITE ox=2 oy=6 addr=50 pix=0xa1 | sx_fix=2.126 sy_fix=7.122 | xi=2 yi=7 fx_q=126 fy_q=122 I00=141 I10=220 I01=141 I11=141
# [SEQ][RUN=1][t=90610000] WRITE ox=3 oy=6 addr=51 pix=0x96 | sx_fix=3.189 sy_fix=7.122 | xi=3 yi=7 fx_q=189 fy_q=122 I00=155 I10=141 I01=155 I11=155
# [SEQ][RUN=1][t=90770000] WRITE ox=4 oy=6 addr=52 pix=0xa2 | sx_fix=4.252 sy_fix=7.122 | xi=4 yi=7 fx_q=252 fy_q=122 I00=170 I10=155 I01=170 I11=170
# [SEQ][RUN=1][t=90930000] WRITE ox=5 oy=6 addr=53 pix=0xc7 | sx_fix=6.59 sy_fix=7.122 | xi=6 yi=7 fx_q=59 fy_q=122 I00=184 I10=184 I01=220 I11=198
# [SEQ][RUN=1][t=91090000] WRITE ox=6 oy=6 addr=54 pix=0xd6 | sx_fix=7.122 sy_fix=7.122 | xi=7 yi=7 fx_q=122 fy_q=122 I00=212 I10=220 I01=212 I11=212
# [SEQ][RUN=1][t=91250000] WRITE ox=7 oy=6 addr=55 pix=0xdd | sx_fix=8.185 sy_fix=7.122 | xi=8 yi=7 fx_q=185 fy_q=122 I00=226 I10=212 I01=226 I11=226
# [SEQ][RUN=1][t=91430000] WRITE ox=0 oy=7 addr=56 pix=0xe2 | sx_fix=0.0 sy_fix=8.185 | xi=0 yi=8 fx_q=0 fy_q=185 I00=240 I10=220 I01=220 I11=220
# [SEQ][RUN=1][t=91590000] WRITE ox=1 oy=7 addr=57 pix=0xb1 | sx_fix=1.63 sy_fix=8.185 | xi=1 yi=8 fx_q=63 fy_q=185 I00=220 I10=220 I01=141 I11=220
# [SEQ][RUN=1][t=91750000] WRITE ox=2 oy=7 addr=58 pix=0xb9 | sx_fix=2.126 sy_fix=8.185 | xi=2 yi=8 fx_q=126 fy_q=185 I00=220 I10=141 I01=155 I11=220
# [SEQ][RUN=1][t=91910000] WRITE ox=3 oy=7 addr=59 pix=0xc5 | sx_fix=3.189 sy_fix=8.185 | xi=3 yi=8 fx_q=189 fy_q=185 I00=220 I10=155 I01=170 I11=220
# [SEQ][RUN=1][t=92070000] WRITE ox=4 oy=7 addr=60 pix=0xce | sx_fix=4.252 sy_fix=8.185 | xi=4 yi=8 fx_q=252 fy_q=185 I00=220 I10=170 I01=184 I11=220
# [SEQ][RUN=1][t=92230000] WRITE ox=5 oy=7 addr=61 pix=0xd6 | sx_fix=6.59 sy_fix=8.185 | xi=6 yi=8 fx_q=59 fy_q=185 I00=220 I10=198 I01=212 I11=220
# [SEQ][RUN=1][t=92390000] WRITE ox=6 oy=7 addr=62 pix=0xe0 | sx_fix=7.122 sy_fix=8.185 | xi=7 yi=8 fx_q=122 fy_q=185 I00=226 I10=212 I01=226 I11=226
# [SEQ][RUN=1][t=92550000] WRITE ox=7 oy=7 addr=63 pix=0xed | sx_fix=8.185 sy_fix=8.185 | xi=8 yi=8 fx_q=185 fy_q=185 I00=240 I10=226 I01=240 I11=240
# [TB][SEQ] DONE detectado en t=92550000
# [TB][SEQ] mode_simd_eff = 0 (0=SEQ,1=SIMD4)
# [TB][SEQ] out_w = 8, out_h = 8
# [TB][SEQ] perf: flops=704 mem_rd=256 mem_wr=64
# [TB] Volcando mem_out (8x8) a 'C:/Users/danbg/src/proyecto_2_arqui_II/src/dsa_bilineal_seq/img_out_seq.hex'
# [TB] Dump completado.
# 
# [TB] ===== RESETEANDO PARA CORRIDA 2: SIMD4 (10x10) ===== t=92550000
# 
# [TB] (Corrida 2) Forzando in_w_cfg=10, in_h_cfg=10, scale_q88_cfg=205 (Q8.8)
# 
# [TB] ===== INICIO CORRIDA 2: SIMD4 (10x10) ===== t=174650000
# 
# [TB][SIMD4] Forzando start_pulse_sw en t=174650000
# [SIMD][RUN=2][t=175270000] WRITE lane=1 oy=0 group_ox=0 addr=0 pix=0xdc | lane_x={0,1,2,3} | xi={0,1,2,3} yi_row=0 | fx_q={0,63,126,189} fy_q_row=0
# [SIMD][RUN=2][t=175290000] WRITE lane=2 oy=0 group_ox=0 addr=1 pix=0xdc | lane_x={0,1,2,3} | xi={0,1,2,3} yi_row=0 | fx_q={0,63,126,189} fy_q_row=0
# [SIMD][RUN=2][t=175310000] WRITE lane=3 oy=0 group_ox=0 addr=2 pix=0xdc | lane_x={0,1,2,3} | xi={0,1,2,3} yi_row=0 | fx_q={0,63,126,189} fy_q_row=0
# [SIMD][RUN=2][t=175890000] WRITE lane=1 oy=0 group_ox=4 addr=4 pix=0xdc | lane_x={4,5,6,7} | xi={4,6,7,8} yi_row=0 | fx_q={252,59,122,185} fy_q_row=0
# [SIMD][RUN=2][t=175910000] WRITE lane=2 oy=0 group_ox=4 addr=5 pix=0xdc | lane_x={4,5,6,7} | xi={4,6,7,8} yi_row=0 | fx_q={252,59,122,185} fy_q_row=0
# [SIMD][RUN=2][t=175930000] WRITE lane=3 oy=0 group_ox=4 addr=6 pix=0xdc | lane_x={4,5,6,7} | xi={4,6,7,8} yi_row=0 | fx_q={252,59,122,185} fy_q_row=0
# [SIMD][RUN=2][t=176550000] WRITE lane=1 oy=1 group_ox=0 addr=8 pix=0xdc | lane_x={0,1,2,3} | xi={0,1,2,3} yi_row=1 | fx_q={0,63,126,189} fy_q_row=63
# [SIMD][RUN=2][t=176570000] WRITE lane=2 oy=1 group_ox=0 addr=9 pix=0xd1 | lane_x={0,1,2,3} | xi={0,1,2,3} yi_row=1 | fx_q={0,63,126,189} fy_q_row=63
# [SIMD][RUN=2][t=176590000] WRITE lane=3 oy=1 group_ox=0 addr=10 pix=0x84 | lane_x={0,1,2,3} | xi={0,1,2,3} yi_row=1 | fx_q={0,63,126,189} fy_q_row=63
# [SIMD][RUN=2][t=177170000] WRITE lane=1 oy=1 group_ox=4 addr=12 pix=0x58 | lane_x={4,5,6,7} | xi={4,6,7,8} yi_row=1 | fx_q={252,59,122,185} fy_q_row=63
# [SIMD][RUN=2][t=177190000] WRITE lane=2 oy=1 group_ox=4 addr=13 pix=0x4d | lane_x={4,5,6,7} | xi={4,6,7,8} yi_row=1 | fx_q={252,59,122,185} fy_q_row=63
# [SIMD][RUN=2][t=177210000] WRITE lane=3 oy=1 group_ox=4 addr=14 pix=0x78 | lane_x={4,5,6,7} | xi={4,6,7,8} yi_row=1 | fx_q={252,59,122,185} fy_q_row=63
# [SIMD][RUN=2][t=177830000] WRITE lane=1 oy=2 group_ox=0 addr=16 pix=0xdc | lane_x={0,1,2,3} | xi={0,1,2,3} yi_row=2 | fx_q={0,63,126,189} fy_q_row=126
# [SIMD][RUN=2][t=177850000] WRITE lane=2 oy=2 group_ox=0 addr=17 pix=0xb2 | lane_x={0,1,2,3} | xi={0,1,2,3} yi_row=2 | fx_q={0,63,126,189} fy_q_row=126
# [SIMD][RUN=2][t=177870000] WRITE lane=3 oy=2 group_ox=0 addr=18 pix=0x61 | lane_x={0,1,2,3} | xi={0,1,2,3} yi_row=2 | fx_q={0,63,126,189} fy_q_row=126
# [SIMD][RUN=2][t=178450000] WRITE lane=1 oy=2 group_ox=4 addr=20 pix=0x6a | lane_x={4,5,6,7} | xi={4,6,7,8} yi_row=2 | fx_q={252,59,122,185} fy_q_row=126
# [SIMD][RUN=2][t=178470000] WRITE lane=2 oy=2 group_ox=4 addr=21 pix=0x5f | lane_x={4,5,6,7} | xi={4,6,7,8} yi_row=2 | fx_q={252,59,122,185} fy_q_row=126
# [SIMD][RUN=2][t=178490000] WRITE lane=3 oy=2 group_ox=4 addr=22 pix=0xad | lane_x={4,5,6,7} | xi={4,6,7,8} yi_row=2 | fx_q={252,59,122,185} fy_q_row=126
# [SIMD][RUN=2][t=179110000] WRITE lane=1 oy=3 group_ox=0 addr=24 pix=0xdc | lane_x={0,1,2,3} | xi={0,1,2,3} yi_row=3 | fx_q={0,63,126,189} fy_q_row=189
# [SIMD][RUN=2][t=179130000] WRITE lane=2 oy=3 group_ox=0 addr=25 pix=0xb6 | lane_x={0,1,2,3} | xi={0,1,2,3} yi_row=3 | fx_q={0,63,126,189} fy_q_row=189
# [SIMD][RUN=2][t=179150000] WRITE lane=3 oy=3 group_ox=0 addr=26 pix=0x4a | lane_x={0,1,2,3} | xi={0,1,2,3} yi_row=3 | fx_q={0,63,126,189} fy_q_row=189
# [SIMD][RUN=2][t=179730000] WRITE lane=1 oy=3 group_ox=4 addr=28 pix=0xc0 | lane_x={4,5,6,7} | xi={4,6,7,8} yi_row=3 | fx_q={252,59,122,185} fy_q_row=189
# [SIMD][RUN=2][t=179750000] WRITE lane=2 oy=3 group_ox=4 addr=29 pix=0xbd | lane_x={4,5,6,7} | xi={4,6,7,8} yi_row=3 | fx_q={252,59,122,185} fy_q_row=189
# [SIMD][RUN=2][t=179770000] WRITE lane=3 oy=3 group_ox=4 addr=30 pix=0x9d | lane_x={4,5,6,7} | xi={4,6,7,8} yi_row=3 | fx_q={252,59,122,185} fy_q_row=189
# [SIMD][RUN=2][t=180390000] WRITE lane=1 oy=4 group_ox=0 addr=32 pix=0xdc | lane_x={0,1,2,3} | xi={0,1,2,3} yi_row=4 | fx_q={0,63,126,189} fy_q_row=252
# [SIMD][RUN=2][t=180410000] WRITE lane=2 oy=4 group_ox=0 addr=33 pix=0xbb | lane_x={0,1,2,3} | xi={0,1,2,3} yi_row=4 | fx_q={0,63,126,189} fy_q_row=252
# [SIMD][RUN=2][t=180430000] WRITE lane=3 oy=4 group_ox=0 addr=34 pix=0x5c | lane_x={0,1,2,3} | xi={0,1,2,3} yi_row=4 | fx_q={0,63,126,189} fy_q_row=252
# [SIMD][RUN=2][t=181010000] WRITE lane=1 oy=4 group_ox=4 addr=36 pix=0xdc | lane_x={4,5,6,7} | xi={4,6,7,8} yi_row=4 | fx_q={252,59,122,185} fy_q_row=252
# [SIMD][RUN=2][t=181030000] WRITE lane=2 oy=4 group_ox=4 addr=37 pix=0xdc | lane_x={4,5,6,7} | xi={4,6,7,8} yi_row=4 | fx_q={252,59,122,185} fy_q_row=252
# [SIMD][RUN=2][t=181050000] WRITE lane=3 oy=4 group_ox=4 addr=38 pix=0xa2 | lane_x={4,5,6,7} | xi={4,6,7,8} yi_row=4 | fx_q={252,59,122,185} fy_q_row=252
# [SIMD][RUN=2][t=181670000] WRITE lane=1 oy=5 group_ox=0 addr=40 pix=0xdc | lane_x={0,1,2,3} | xi={0,1,2,3} yi_row=6 | fx_q={0,63,126,189} fy_q_row=59
# [SIMD][RUN=2][t=181690000] WRITE lane=2 oy=5 group_ox=0 addr=41 pix=0xbf | lane_x={0,1,2,3} | xi={0,1,2,3} yi_row=6 | fx_q={0,63,126,189} fy_q_row=59
# [SIMD][RUN=2][t=181710000] WRITE lane=3 oy=5 group_ox=0 addr=42 pix=0x78 | lane_x={0,1,2,3} | xi={0,1,2,3} yi_row=6 | fx_q={0,63,126,189} fy_q_row=59
# [SIMD][RUN=2][t=182290000] WRITE lane=1 oy=5 group_ox=4 addr=44 pix=0x9e | lane_x={4,5,6,7} | xi={4,6,7,8} yi_row=6 | fx_q={252,59,122,185} fy_q_row=59
# [SIMD][RUN=2][t=182310000] WRITE lane=2 oy=5 group_ox=4 addr=45 pix=0x94 | lane_x={4,5,6,7} | xi={4,6,7,8} yi_row=6 | fx_q={252,59,122,185} fy_q_row=59
# [SIMD][RUN=2][t=182330000] WRITE lane=3 oy=5 group_ox=4 addr=46 pix=0xca | lane_x={4,5,6,7} | xi={4,6,7,8} yi_row=6 | fx_q={252,59,122,185} fy_q_row=59
# [SIMD][RUN=2][t=182950000] WRITE lane=1 oy=6 group_ox=0 addr=48 pix=0xdc | lane_x={0,1,2,3} | xi={0,1,2,3} yi_row=7 | fx_q={0,63,126,189} fy_q_row=122
# [SIMD][RUN=2][t=182970000] WRITE lane=2 oy=6 group_ox=0 addr=49 pix=0xce | lane_x={0,1,2,3} | xi={0,1,2,3} yi_row=7 | fx_q={0,63,126,189} fy_q_row=122
# [SIMD][RUN=2][t=182990000] WRITE lane=3 oy=6 group_ox=0 addr=50 pix=0xad | lane_x={0,1,2,3} | xi={0,1,2,3} yi_row=7 | fx_q={0,63,126,189} fy_q_row=122
# [SIMD][RUN=2][t=183570000] WRITE lane=1 oy=6 group_ox=4 addr=52 pix=0xb0 | lane_x={4,5,6,7} | xi={4,6,7,8} yi_row=7 | fx_q={252,59,122,185} fy_q_row=122
